rtl/tb_sha256_top.vcd
$date
	Sun Aug 03 11:18:00 2025
$end
$version
	Icarus Verilog
$end
$timescale
	1ps
$end
$scope module tb_sha256_top $end
$var wire 1 ! hash_out_valid $end
$var wire 256 " hash_out [255:0] $end
$var wire 1 # data_ready $end
$var reg 1 $ clk $end
$var reg 8 % data_in [7:0] $end
$var reg 1 & data_in_valid $end
$var reg 1 ' data_last $end
$var reg 1 ( rst_n $end
$var integer 32 ) i [31:0] $end
$var integer 32 * message_length [31:0] $end
$scope module uut $end
$var wire 1 $ clk $end
$var wire 8 + data_in [7:0] $end
$var wire 1 & data_in_valid $end
$var wire 1 ' data_last $end
$var wire 1 ( rst_n $end
$var wire 1 , padded_block_valid $end
$var wire 512 - padded_block [511:0] $end
$var wire 1 # data_ready $end
$var wire 1 . compressed_hash_valid $end
$var wire 256 / compressed_hash [255:0] $end
$var wire 1 0 Wt_valid $end
$var wire 32 1 Wt [31:0] $end
$var parameter 256 2 INITIAL_HASH $end
$var reg 256 3 hash_out [255:0] $end
$var reg 1 ! hash_out_valid $end
$var reg 256 4 intermediate_hash [255:0] $end
$var reg 2 5 valid_pipeline [1:0] $end
$scope module compress_inst $end
$var wire 1 $ clk $end
$var wire 256 6 hash_in [255:0] $end
$var wire 1 ( rst_n $end
$var wire 1 0 Wt_valid $end
$var wire 32 7 Wt_in [31:0] $end
$var reg 32 8 T1 [31:0] $end
$var reg 32 9 T2 [31:0] $end
$var reg 32 : a0 [31:0] $end
$var reg 32 ; b0 [31:0] $end
$var reg 32 < c0 [31:0] $end
$var reg 32 = d0 [31:0] $end
$var reg 32 > e0 [31:0] $end
$var reg 32 ? f0 [31:0] $end
$var reg 32 @ g0 [31:0] $end
$var reg 32 A h0 [31:0] $end
$var reg 256 B hash_out [255:0] $end
$var reg 1 . hash_out_valid $end
$var reg 256 C hash_reg [255:0] $end
$var reg 1 D output_stage $end
$var reg 6 E wt_counter [5:0] $end
$var reg 1 F zip_active $end
$var integer 32 G i [31:0] $end
$scope function Ch $end
$var reg 32 H x [31:0] $end
$var reg 32 I y [31:0] $end
$var reg 32 J z [31:0] $end
$upscope $end
$scope function Maj $end
$var reg 32 K x [31:0] $end
$var reg 32 L y [31:0] $end
$var reg 32 M z [31:0] $end
$upscope $end
$scope function SIGMA0 $end
$var reg 32 N x [31:0] $end
$upscope $end
$scope function SIGMA1 $end
$var reg 32 O x [31:0] $end
$upscope $end
$upscope $end
$scope module expand_inst $end
$var wire 1 $ clk $end
$var wire 1 ( rst_n $end
$var wire 1 , block_valid $end
$var wire 512 P block_in [511:0] $end
$var parameter 32 Q FIFO_DEPTH $end
$var reg 32 R Wt_out [31:0] $end
$var reg 1 0 Wt_valid $end
$var reg 1 S expand_active $end
$var reg 7 T expand_counter [6:0] $end
$var reg 5 U fifo_count [4:0] $end
$var reg 5 V fifo_rd_ptr [4:0] $end
$var reg 5 W fifo_wr_ptr [4:0] $end
$var integer 32 X i [31:0] $end
$var integer 32 Y t [31:0] $end
$scope function sigma0 $end
$var reg 32 Z x [31:0] $end
$upscope $end
$scope function sigma1 $end
$var reg 32 [ x [31:0] $end
$upscope $end
$upscope $end
$scope module padding_inst $end
$var wire 1 $ clk $end
$var wire 8 \ data_in [7:0] $end
$var wire 1 & data_in_valid $end
$var wire 1 ' data_last $end
$var wire 1 ( rst_n $end
$var parameter 4 ] IDLE $end
$var parameter 4 ^ OUTPUT_FULL_1 $end
$var parameter 4 _ OUTPUT_FULL_2 $end
$var parameter 4 ` OUTPUT_FULL_3 $end
$var parameter 4 a OUTPUT_LAST $end
$var parameter 4 b PAD_0 $end
$var parameter 4 c PAD_1 $end
$var parameter 4 d PAD_LEN $end
$var parameter 4 e RECEIVE $end
$var reg 6 f byte_count [5:0] $end
$var reg 64 g data_length [63:0] $end
$var reg 512 h data_out [511:0] $end
$var reg 1 , data_out_valid $end
$var reg 1 # data_ready $end
$var reg 6 i fill_pos [5:0] $end
$var reg 4 j state [3:0] $end
$var reg 512 k temp_block [511:0] $end
$upscope $end
$upscope $end
$upscope $end
$enddefinitions $end
$comment Show the parameter values. $end
$dumpall
b1 e
b111 d
b101 c
b110 b
b1000 a
b100 `
b11 _
b10 ^
b0 ]
b10000 Q
b110101000001001111001100110011110111011011001111010111010000101001111000110111011110011011100101010010101001111111101010011101001010001000011100101001001111111100110110000010101101000100011000001111110000011110110011010101101011011111000001100110100011001 2
$end
#0
$dumpvars
bx k
bx j
bx i
bx h
bx g
bx f
bx \
bx [
bx Z
bx Y
bx X
bx W
bx V
bx U
bx T
xS
bx R
bx P
bx O
bx N
bx M
bx L
bx K
bx J
bx I
bx H
bx G
xF
bx E
xD
bx C
bx B
bx A
bx @
bx ?
bx >
bx =
bx <
bx ;
bx :
bx 9
bx 8
bx 7
bx 6
bx 5
bx 4
bx 3
bx 1
x0
bx /
x.
bx -
x,
bx +
b11 *
bx )
x(
x'
x&
bx %
0$
x#
bx "
x!
$end
#5000
1#
b0 j
0,
00
0.
1$
#10000
0$
#15000
bx0 5
1$
#20000
b0 i
b0 -
b0 P
b0 h
b0 k
b0 f
b0 g
b0 U
b0 V
b0 W
b0 1
b0 7
b0 R
0S
b0 T
b0 /
b0 B
0D
0F
b0 E
b0 C
b0 5
0!
b0 "
b0 3
b110101000001001111001100110011110111011011001111010111010000101001111000110111011110011011100101010010101001111111101010011101001010001000011100101001001111111100110110000010101101000100011000001111110000011110110011010101101011011111000001100110100011001 4
b110101000001001111001100110011110111011011001111010111010000101001111000110111011110011011100101010010101001111111101010011101001010001000011100101001001111111100110110000010101101000100011000001111110000011110110011010101101011011111000001100110100011001 6
b10000 X
b100000 G
0$
0'
0&
b0 %
b0 +
b0 \
0(
#25000
b100000 G
b10000 X
1$
#30000
0$
1(
#35000
1$
#40000
0$
#45000
b1 f
b1100001000000000000000000000000000000000000000000000000000000000000000000000000000000000000000000000000000000000000000000000000000000000000000000000000000000000000000000000000000000000000000000000000000000000000000000000000000000000000000000000000000000000000000000000000000000000000000000000000000000000000000000000000000000000000000000000000000000000000000000000000000000000000000000000000000000000000000000000000000000000000000000000000000000000000000000000000000000000000000000000000000000000000000000000000 k
b1000 g
b1 j
b1100001 %
b1100001 +
b1100001 \
b0 )
1&
1$
#50000
0$
#55000
b10 f
b1100001011000100000000000000000000000000000000000000000000000000000000000000000000000000000000000000000000000000000000000000000000000000000000000000000000000000000000000000000000000000000000000000000000000000000000000000000000000000000000000000000000000000000000000000000000000000000000000000000000000000000000000000000000000000000000000000000000000000000000000000000000000000000000000000000000000000000000000000000000000000000000000000000000000000000000000000000000000000000000000000000000000000000000000000000 k
b10000 g
b1100010 %
b1100010 +
b1100010 \
b1 )
1$
#60000
0$
#65000
0#
b101 j
b11 i
b11 f
b1100001011000100110001100000000000000000000000000000000000000000000000000000000000000000000000000000000000000000000000000000000000000000000000000000000000000000000000000000000000000000000000000000000000000000000000000000000000000000000000000000000000000000000000000000000000000000000000000000000000000000000000000000000000000000000000000000000000000000000000000000000000000000000000000000000000000000000000000000000000000000000000000000000000000000000000000000000000000000000000000000000000000000000000000000000 k
b11000 g
1'
b1100011 %
b1100011 +
b1100011 \
b10 )
1$
#70000
0$
#75000
b110 j
b100 i
b1100001011000100110001110000000000000000000000000000000000000000000000000000000000000000000000000000000000000000000000000000000000000000000000000000000000000000000000000000000000000000000000000000000000000000000000000000000000000000000000000000000000000000000000000000000000000000000000000000000000000000000000000000000000000000000000000000000000000000000000000000000000000000000000000000000000000000000000000000000000000000000000000000000000000000000000000000000000000000000000000000000000000000000000000000000 k
0'
0&
b11 )
1$
#80000
0$
#85000
b101 i
1$
#90000
0$
#95000
b110 i
1$
#100000
0$
#105000
b111 i
1$
#110000
0$
#115000
b1000 i
1$
#120000
0$
#125000
b1001 i
1$
#130000
0$
#135000
b1010 i
1$
#140000
0$
#145000
b1011 i
1$
#150000
0$
#155000
b1100 i
1$
#160000
0$
#165000
b1101 i
1$
#170000
0$
#175000
b1110 i
1$
#180000
0$
#185000
b1111 i
1$
#190000
0$
#195000
b10000 i
1$
#200000
0$
#205000
b10001 i
1$
#210000
0$
#215000
b10010 i
1$
#220000
0$
#225000
b10011 i
1$
#230000
0$
#235000
b10100 i
1$
#240000
0$
#245000
b10101 i
1$
#250000
0$
#255000
b10110 i
1$
#260000
0$
#265000
b10111 i
1$
#270000
0$
#275000
b11000 i
1$
#280000
0$
#285000
b11001 i
1$
#290000
0$
#295000
b11010 i
1$
#300000
0$
#305000
b11011 i
1$
#310000
0$
#315000
b11100 i
1$
#320000
0$
#325000
b11101 i
1$
#330000
0$
#335000
b11110 i
1$
#340000
0$
#345000
b11111 i
1$
#350000
0$
#355000
b100000 i
1$
#360000
0$
#365000
b100001 i
1$
#370000
0$
#375000
b100010 i
1$
#380000
0$
#385000
b100011 i
1$
#390000
0$
#395000
b100100 i
1$
#400000
0$
#405000
b100101 i
1$
#410000
0$
#415000
b100110 i
1$
#420000
0$
#425000
b100111 i
1$
#430000
0$
#435000
b101000 i
1$
#440000
0$
#445000
b101001 i
1$
#450000
0$
#455000
b101010 i
1$
#460000
0$
#465000
b101011 i
1$
#470000
0$
#475000
b101100 i
1$
#480000
0$
#485000
b101101 i
1$
#490000
0$
#495000
b101110 i
1$
#500000
0$
#505000
b101111 i
1$
#510000
0$
#515000
b110000 i
1$
#520000
0$
#525000
b110001 i
1$
#530000
0$
#535000
b110010 i
1$
#540000
0$
#545000
b110011 i
1$
#550000
0$
#555000
b110100 i
1$
#560000
0$
#565000
b110101 i
1$
#570000
0$
#575000
b110110 i
1$
#580000
0$
#585000
b110111 i
1$
#590000
0$
#595000
b111000 i
1$
#600000
0$
#605000
b111 j
1$
#610000
0$
#615000
b1000 j
b1100001011000100110001110000000000000000000000000000000000000000000000000000000000000000000000000000000000000000000000000000000000000000000000000000000000000000000000000000000000000000000000000000000000000000000000000000000000000000000000000000000000000000000000000000000000000000000000000000000000000000000000000000000000000000000000000000000000000000000000000000000000000000000000000000000000000000000000000000000000000000000000000000000000000000000000000000000000000000000000000000000000000000000000000011000 k
1$
#620000
0$
#625000
1#
b0 j
b0 g
b0 i
b0 f
b0 k
1,
b1100001011000100110001110000000000000000000000000000000000000000000000000000000000000000000000000000000000000000000000000000000000000000000000000000000000000000000000000000000000000000000000000000000000000000000000000000000000000000000000000000000000000000000000000000000000000000000000000000000000000000000000000000000000000000000000000000000000000000000000000000000000000000000000000000000000000000000000000000000000000000000000000000000000000000000000000000000000000000000000000000000000000000000000000011000 -
b1100001011000100110001110000000000000000000000000000000000000000000000000000000000000000000000000000000000000000000000000000000000000000000000000000000000000000000000000000000000000000000000000000000000000000000000000000000000000000000000000000000000000000000000000000000000000000000000000000000000000000000000000000000000000000000000000000000000000000000000000000000000000000000000000000000000000000000000000000000000000000000000000000000000000000000000000000000000000000000000000000000000000000000000000011000 P
b1100001011000100110001110000000000000000000000000000000000000000000000000000000000000000000000000000000000000000000000000000000000000000000000000000000000000000000000000000000000000000000000000000000000000000000000000000000000000000000000000000000000000000000000000000000000000000000000000000000000000000000000000000000000000000000000000000000000000000000000000000000000000000000000000000000000000000000000000000000000000000000000000000000000000000000000000000000000000000000000000000000000000000000000000011000 h
1$
#630000
0$
#635000
0,
b1 W
b1 U
1$
#640000
0$
#645000
b0 U
b1 V
1S
b10000 T
b10000 Y
1$
#650000
0$
#655000
b10001 T
b1111 X
b0 Z
b0 [
1$
#660000
0$
#665000
b10010 T
b1111 X
b11000 [
1$
#670000
0$
#675000
b10011 T
b1111 X
b1100001011000100110001110000000 [
1$
#680000
0$
#685000
b10100 T
b1111 X
b11110000000000000000 [
1$
#690000
0$
#695000
b10101 T
b1111 X
b1111101101010000110010000000101 [
1$
#700000
0$
#705000
b10110 T
b1111 X
b1100000000000000000001111000110 [
1$
#710000
0$
#715000
b10111 T
b1111 X
b111110100111010111101101111000 [
1$
#720000
0$
#725000
b11000 T
b1111 X
b1100000111111110000000000 [
1$
#730000
0$
#735000
b11001 T
b1111 X
b10010110111001011111111011011 [
1$
#740000
0$
#745000
b11010 T
b1111 X
b11100010111000101100001110001110 [
1$
#750000
0$
#755000
b11011 T
b1111 X
b11001000001000010101110000011010 [
1$
#760000
0$
#765000
b11100 T
b1111 X
b10110111001101100111100110100010 [
1$
#770000
0$
#775000
b11101 T
b1111 X
b11100101101111000011100100001001 [
1$
#780000
0$
#785000
b11110 T
b1111 X
b110010011001100011110001011011 [
1$
#790000
0$
#795000
b11111 T
b1111 X
b11000 Z
b10011101001000001001110101100111 [
1$
#800000
0$
#805000
b100000 T
b1111 X
b1100001011000100110001110000000 Z
b11101100100001110010011011001011 [
1$
#810000
0$
#815000
b100001 T
10
b1100001011000100110001110000000 1
b1100001011000100110001110000000 7
b1100001011000100110001110000000 R
b1111 X
b11110000000000000000 Z
b1110000001000010011100010100100 [
1$
#820000
0$
#825000
1F
b110101000001001111001100110011110111011011001111010111010000101001111000110111011110011011100101010010101001111111101010011101001010001000011100101001001111111100110110000010101101000100011000001111110000011110110011010101101011011111000001100110100011001 C
b100010 T
b0 1
b0 7
b0 R
10
b100000 G
b1000100100001001101011100101 9
b1101010000010011110011001100111 K
b10111011011001111010111010000101 L
b111100011011101111001101110010 M
b1101010000010011110011001100111 N
b1010100110110100101000011101000 8
b1010001000011100101001001111111 H
b10011011000001010110100010001100 I
b11111100000111101100110101011 J
b1010001000011100101001001111111 O
b1011011111000001100110100011001 A
b11111100000111101100110101011 @
b10011011000001010110100010001100 ?
b1010001000011100101001001111111 >
b10100101010011111111010100111010 =
b111100011011101111001101110010 <
b10111011011001111010111010000101 ;
b1101010000010011110011001100111 :
b1111 X
b1111101101010000110010000000101 Z
b11010011101101111001011100111011 [
1$
#830000
0$
#835000
b100011 T
10
b1 E
b1111 X
b1100000000000000000001111000110 Z
b10010011111101011001100101111111 [
b11110000010110101001110010110 9
b1011101011010101110101111001101 K
b1101010000010011110011001100111 L
b10111011011001111010111010000101 M
b1011101011010101110101111001101 N
b111100010111111000011000010111 8
b11111010001010100100011000100010 H
b1010001000011100101001001111111 I
b10011011000001010110100010001100 J
b11111010001010100100011000100010 O
b0 G
b11111100000111101100110101011 A
b10011011000001010110100010001100 @
b1010001000011100101001001111111 ?
b11111010001010100100011000100010 >
b111100011011101111001101110010 =
b10111011011001111010111010000101 <
b1101010000010011110011001100111 ;
b1011101011010101110101111001101 :
1$
#840000
0$
#845000
b10 E
b100100 T
10
b10001011000000011011110001000001 9
b1011010011010101101100110101101 K
b1011101011010101110101111001101 L
b1101010000010011110011001100111 M
b1011010011010101101100110101101 N
b111101110000011000101101100110 8
b1111000110011100111100110001001 H
b11111010001010100100011000100010 I
b1010001000011100101001001111111 J
b1111000110011100111100110001001 O
b0 G
b10011011000001010110100010001100 A
b1010001000011100101001001111111 @
b11111010001010100100011000100010 ?
b1111000110011100111100110001001 >
b10111011011001111010111010000101 =
b1101010000010011110011001100111 <
b1011101011010101110101111001101 ;
b1011010011010101101100110101101 :
b1111 X
b111110100111010111101101111000 Z
b111011011010001011101001110011 [
1$
#850000
0$
#855000
b100101 T
10
b11 E
b1111 X
b1100000111111110000000000 Z
b10101111111101001111111111000001 [
b11010011110101101010001111101 9
b11001000110000110100011110100111 K
b1011010011010101101100110101101 L
b1011101011010101110101111001101 M
b11001000110000110100011110100111 N
b10111010110101100010000111101001 8
b11111001001010010011100111101011 H
b1111000110011100111100110001001 I
b11111010001010100100011000100010 J
b11111001001010010011100111101011 O
b0 G
b1010001000011100101001001111111 A
b11111010001010100100011000100010 @
b1111000110011100111100110001001 ?
b11111001001010010011100111101011 >
b1101010000010011110011001100111 =
b1011101011010101110101111001101 <
b1011010011010101101100110101101 ;
b11001000110000110100011110100111 :
1$
#860000
0$
#865000
b100 E
b100110 T
10
b11101111111011110001111110010 9
b11010101010100001111011001100110 K
b11001000110000110100011110100111 L
b1011010011010101101100110101101 M
b11010101010100001111011001100110 N
b11100110010000101011011001111000 8
b100100111000000000100001010000 H
b11111001001010010011100111101011 I
b1111000110011100111100110001001 J
b100100111000000000100001010000 O
b0 G
b11111010001010100100011000100010 A
b1111000110011100111100110001001 @
b11111001001010010011100111101011 ?
b100100111000000000100001010000 >
b1011101011010101110101111001101 =
b1011010011010101101100110101101 <
b11001000110000110100011110100111 ;
b11010101010100001111011001100110 :
b1111 X
b10010110111001011111111011011 Z
b11110001000010100101110001100010 [
1$
#870000
0$
#875000
b100111 T
10
b101 E
b1111 X
b11100010111000101100001110001110 Z
b1010100010110011100110010110 [
b10100011010101000001011110101 9
b100010000001001101001101010 K
b11010101010100001111011001100110 L
b11001000110000110100011110100111 M
b100010000001001101001101010 N
b10110110101111000011100000000 8
b1000011101011011010001001000101 H
b100100111000000000100001010000 I
b11111001001010010011100111101011 J
b1000011101011011010001001000101 O
b0 G
b1111000110011100111100110001001 A
b11111001001010010011100111101011 @
b100100111000000000100001010000 ?
b1000011101011011010001001000101 >
b1011010011010101101100110101101 =
b11001000110000110100011110100111 <
b11010101010100001111011001100110 ;
b100010000001001101001101010 :
1$
#880000
0$
#885000
b110 E
b101000 T
10
b10010100111101010011100100110 9
b101011010000100000100111110101 K
b100010000001001101001101010 L
b11010101010100001111011001100110 M
b101011010000100000100111110101 N
b11010010011001000101110001011010 8
b1110001010000100110000010101101 H
b1000011101011011010001001000101 I
b100100111000000000100001010000 J
b1110001010000100110000010101101 O
b0 G
b11111001001010010011100111101011 A
b100100111000000000100001010000 @
b1000011101011011010001001000101 ?
b1110001010000100110000010101101 >
b11001000110000110100011110100111 =
b11010101010100001111011001100110 <
b100010000001001101001101010 ;
b101011010000100000100111110101 :
b1111 X
b11001000001000010101110000011010 Z
b1110010101011111000001100001010 [
1$
#890000
0$
#895000
b101001 T
10
b111 E
b1111 X
b10110111001101100111100110100010 Z
b10010100000010011110001100111110 [
b1001110100010111111011101001100 9
b11100101000000110000001110000000 K
b101011010000100000100111110101 L
b100010000001001101001101010 M
b11100101000000110000001110000000 N
b110111000101001000010000010011 8
b10011011001001111010010000000001 H
b1110001010000100110000010101101 I
b1000011101011011010001001000101 J
b10011011001001111010010000000001 O
b0 G
b100100111000000000100001010000 A
b1000011101011011010001001000101 @
b1110001010000100110000010101101 ?
b10011011001001111010010000000001 >
b11010101010100001111011001100110 =
b100010000001001101001101010 <
b101011010000100000100111110101 ;
b11100101000000110000001110000000 :
1$
#900000
0$
#905000
b1000 E
b101010 T
10
b1011111011110110101100110010111 9
b10000101101000000111101101011111 K
b11100101000000110000001110000000 L
b101011010000100000100111110101 M
b10000101101000000111101101011111 N
b101110100010011001001100100010 8
b1100011001010111101001111001 H
b10011011001001111010010000000001 I
b1110001010000100110000010101101 J
b1100011001010111101001111001 O
b0 G
b1000011101011011010001001000101 A
b1110001010000100110000010101101 @
b10011011001001111010010000000001 ?
b1100011001010111101001111001 >
b100010000001001101001101010 =
b101011010000100000100111110101 <
b11100101000000110000001110000000 ;
b10000101101000000111101101011111 :
b1111 X
b11100101101111000011100100001001 Z
b100100011001000001010100100010 [
1$
#910000
0$
#915000
b101011 T
10
b1001 E
b1111 X
b110010011001100011110001011011 Z
b10011111010001111011111110010100 [
b10011011000000000001100011001010 9
b10001110000001001110110010111001 K
b10000101101000000111101101011111 L
b11100101000000110000001110000000 M
b10001110000001001110110010111001 N
b11110001100001110001101110100001 8
b110010110010100010110110001100 H
b1100011001010111101001111001 I
b10011011001001111010010000000001 J
b110010110010100010110110001100 O
b0 G
b1110001010000100110000010101101 A
b10011011001001111010010000000001 @
b1100011001010111101001111001 ?
b110010110010100010110110001100 >
b101011010000100000100111110101 =
b11100101000000110000001110000000 <
b10000101101000000111101101011111 ;
b10001110000001001110110010111001 :
1$
#920000
0$
#925000
b1010 E
b101100 T
10
b11101001001100001000001110001100 9
b10001100100001110011010001101011 K
b10001110000001001110110010111001 L
b10000101101000000111101101011111 M
b10001100100001110011010001101011 N
b1011110011010000010000001101000 8
b11100110010010010010110010110 H
b110010110010100010110110001100 I
b1100011001010111101001111001 J
b11100110010010010010110010110 O
b0 G
b10011011001001111010010000000001 A
b1100011001010111101001111001 @
b110010110010100010110110001100 ?
b11100110010010010010110010110 >
b11100101000000110000001110000000 =
b10000101101000000111101101011111 <
b10001110000001001110110010111001 ;
b10001100100001110011010001101011 :
b1111 X
b10011101001000001001110101100111 Z
b11110000101001100100111101011010 [
1$
#930000
0$
#935000
b101101 T
10
b1011 E
b1111 X
b11101100100001110010011011001011 Z
b111110001001000110101001111001 [
b11111011010100000110101000011111 9
b1000111100110001010001111110100 K
b10001100100001110011010001101011 L
b10001110000001001110110010111001 M
b1000111100110001010001111110100 N
b11111011110011110101101110001010 8
b1000011011010110010001111101000 H
b11100110010010010010110010110 I
b110010110010100010110110001100 J
b1000011011010110010001111101000 O
b0 G
b1100011001010111101001111001 A
b110010110010100010110110001100 @
b11100110010010010010110010110 ?
b1000011011010110010001111101000 >
b10000101101000000111101101011111 =
b10001110000001001110110010111001 <
b10001100100001110011010001101011 ;
b1000111100110001010001111110100 :
1$
#940000
0$
#945000
b1100 E
b101110 T
10
b11110111001111101001010000110001 9
b11110111000111111100010110101001 K
b1000111100110001010001111110100 L
b10001100100001110011010001101011 M
b11110111000111111100010110101001 N
b10010000010100101001010101011111 8
b10000001011011111101011011101001 H
b1000011011010110010001111101000 I
b11100110010010010010110010110 J
b10000001011011111101011011101001 O
b0 G
b110010110010100010110110001100 A
b11100110010010010010110010110 @
b1000011011010110010001111101000 ?
b10000001011011111101011011101001 >
b10001110000001001110110010111001 =
b10001100100001110011010001101011 <
b1000111100110001010001111110100 ;
b11110111000111111100010110101001 :
b1111 X
b1110000001000010011100010100100 Z
b100111001100110011101110100011 [
1$
#950000
0$
#955000
b101111 T
10
b1101 E
b1111 X
b11010011101101111001011100111011 Z
b1100010001110110001111110010 [
b11110001010111111101011010100011 9
b10000111100100010010100110010000 K
b11110111000111111100010110101001 L
b1000111100110001010001111110100 M
b10000111100100010010100110010000 N
b11100111110100110001010001110011 8
b11110010101111000001000011000 H
b10000001011011111101011011101001 I
b1000011011010110010001111101000 J
b11110010101111000001000011000 O
b0 G
b11100110010010010010110010110 A
b1000011011010110010001111101000 @
b10000001011011111101011011101001 ?
b11110010101111000001000011000 >
b10001100100001110011010001101011 =
b1000111100110001010001111110100 <
b11110111000111111100010110101001 ;
b10000111100100010010100110010000 :
1$
#960000
0$
#965000
b1110 E
b110000 T
b11000 1
b11000 7
b11000 R
10
b11111100011010100001000111000110 9
b11011001001100101110101100010110 K
b10000111100100010010100110010000 L
b11110111000111111100010110101001 M
b11011001001100101110101100010110 N
b11000011111110100100111000011000 8
b1110100010110100100100011011110 H
b11110010101111000001000011000 I
b10000001011011111101011011101001 J
b1110100010110100100100011011110 O
b0 G
b1000011011010110010001111101000 A
b10000001011011111101011011101001 @
b11110010101111000001000011000 ?
b1110100010110100100100011011110 >
b1000111100110001010001111110100 =
b11110111000111111100010110101001 <
b10000111100100010010100110010000 ;
b11011001001100101110101100010110 :
b1111 X
b10010011111101011001100101111111 Z
b10000100000010101011111100100111 [
1$
#970000
0$
#975000
b110001 T
b1100001011000100110001110000000 1
b1100001011000100110001110000000 7
b1100001011000100110001110000000 R
10
b1111 E
b1111 X
b111011011010001011101001110011 Z
b1111010001010010000110101011101 [
b10100000110000001101101101101010 9
b11000000011001000101111111011110 K
b11011001001100101110101100010110 L
b10000111100100010010100110010000 M
b11000000011001000101111111011110 N
b10000001110010100100000100100 8
b1011100100101111001000001100 H
b1110100010110100100100011011110 I
b11110010101111000001000011000 J
b1011100100101111001000001100 O
b0 G
b10000001011011111101011011101001 A
b11110010101111000001000011000 @
b1110100010110100100100011011110 ?
b1011100100101111001000001100 >
b11110111000111111100010110101001 =
b10000111100100010010100110010000 <
b11011001001100101110101100010110 ;
b11000000011001000101111111011110 :
1$
#980000
0$
#985000
b10000 E
b110010 T
b11110000000000000000 1
b11110000000000000000 7
b11110000000000000000 R
10
b101001001101111010000110001111 9
b10110000111110100010001110001110 K
b11000000011001000101111111011110 L
b11011001001100101110101100010110 M
b10110000111110100010001110001110 N
b11111000101000101111100100001100 8
b111010110010000110111001101 H
b1011100100101111001000001100 I
b1110100010110100100100011011110 J
b111010110010000110111001101 O
b0 G
b11110010101111000001000011000 A
b1110100010110100100100011011110 @
b1011100100101111001000001100 ?
b111010110010000110111001101 >
b10000111100100010010100110010000 =
b11011001001100101110101100010110 <
b11000000011001000101111111011110 ;
b10110000111110100010001110001110 :
b1111 X
b10101111111101001111111111000001 Z
b110010111000100001111011010 [
1$
#990000
0$
#995000
b110011 T
b1111101101010000110010000000101 1
b1111101101010000110010000000101 7
b1111101101010000110010000000101 R
10
b10001 E
b1111 X
b11110001000010100101110001100010 Z
b11111011001111101000100111001011 [
b10111101111111110000010010011 9
b100001110110101001101010011011 K
b10110000111110100010001110001110 L
b11000000011001000101111111011110 M
b100001110110101001101010011011 N
b10101011001110111111100100111110 8
b10000000001101000010001010011100 H
b111010110010000110111001101 I
b1011100100101111001000001100 J
b10000000001101000010001010011100 O
b0 G
b1110100010110100100100011011110 A
b1011100100101111001000001100 @
b111010110010000110111001101 ?
b10000000001101000010001010011100 >
b11011001001100101110101100010110 =
b11000000011001000101111111011110 <
b10110000111110100010001110001110 ;
b100001110110101001101010011011 :
1$
#1000000
0$
#1005000
b10010 E
b110100 T
b1100000000000000000001111000110 1
b1100000000000000000001111000110 7
b1100000000000000000001111000110 R
10
b11110010010100100100001000111100 9
b11000010111110111101100111010001 K
b100001110110101001101010011011 L
b10110000111110100010001110001110 M
b11000010111110111101100111010001 N
b1100001001010011100110000011 8
b10000100011011101110010001010100 H
b10000000001101000010001010011100 I
b111010110010000110111001101 J
b10000100011011101110010001010100 O
b0 G
b1011100100101111001000001100 A
b111010110010000110111001101 @
b10000000001101000010001010011100 ?
b10000100011011101110010001010100 >
b11000000011001000101111111011110 =
b10110000111110100010001110001110 <
b100001110110101001101010011011 ;
b11000010111110111101100111010001 :
b1111 X
b1010100010110011100110010110 Z
b11001100011101100001011111011011 [
1$
#1010000
0$
#1015000
b110101 T
b111110100111010111101101111000 1
b111110100111010111101101111000 7
b111110100111010111101101111000 R
10
b10011 E
b1111 X
b1110010101011111000001100001010 Z
b10111001111001100110110000110100 [
b11100010100010001010111001001000 9
b11111110011101110111101110111111 K
b11000010111110111101100111010001 L
b100001110110101001101010011011 M
b11111110011101110111101110111111 N
b11111111011010010101110111101011 8
b11001100100010011001100101100001 H
b10000100011011101110010001010100 I
b10000000001101000010001010011100 J
b11001100100010011001100101100001 O
b0 G
b111010110010000110111001101 A
b10000000001101000010001010011100 @
b10000100011011101110010001010100 ?
b11001100100010011001100101100001 >
b10110000111110100010001110001110 =
b100001110110101001101010011011 <
b11000010111110111101100111010001 ;
b11111110011101110111101110111111 :
1$
#1020000
0$
#1025000
b10100 E
b110110 T
b1100000111111110000000000 1
b1100000111111110000000000 7
b1100000111111110000000000 R
10
b110100110001101001110011001110 9
b11100001111100100000110000110011 K
b11111110011101110111101110111111 L
b11000010111110111101100111010001 M
b11100001111100100000110000110011 N
b1101000111111111110111010010101 8
b10110000011000111000000101111001 H
b11001100100010011001100101100001 I
b10000100011011101110010001010100 J
b10110000011000111000000101111001 O
b0 G
b10000000001101000010001010011100 A
b10000100011011101110010001010100 @
b11001100100010011001100101100001 ?
b10110000011000111000000101111001 >
b100001110110101001101010011011 =
b11000010111110111101100111010001 <
b11111110011101110111101110111111 ;
b11100001111100100000110000110011 :
b1111 X
b10010100000010011110001100111110 Z
b10101001100110010011011001100111 [
1$
#1030000
0$
#1035000
b110111 T
b10010110111001011111111011011 1
b10010110111001011111111011011 7
b10010110111001011111111011011 R
10
b10101 E
b1111 X
b100100011001000001010100100010 Z
b10000100101110101101111011011101 [
b10100100001101101100110111001110 9
b10011101110001101000101101100011 K
b11100001111100100000110000110011 L
b11111110011101110111101110111111 M
b10011101110001101000101101100011 N
b11110001010011001111110011111 8
b10001010110110101000100100110000 H
b10110000011000111000000101111001 I
b11001100100010011001100101100001 J
b10001010110110101000100100110000 O
b0 G
b10000100011011101110010001010100 A
b11001100100010011001100101100001 @
b10110000011000111000000101111001 ?
b10001010110110101000100100110000 >
b11000010111110111101100111010001 =
b11111110011101110111101110111111 <
b11100001111100100000110000110011 ;
b10011101110001101000101101100011 :
1$
#1040000
0$
#1045000
b10110 E
b111000 T
b11100010111000101100001110001110 1
b11100010111000101100001110001110 7
b11100010111000101100001110001110 R
10
b1011100001001011100110010110100 9
b11000010011000000110110101101101 K
b10011101110001101000101101100011 L
b11100001111100100000110000110011 M
b11000010011000000110110101101101 N
b1001011011111011001010110001011 8
b11100001001001010111100101110000 H
b10001010110110101000100100110000 I
b10110000011000111000000101111001 J
b11100001001001010111100101110000 O
b0 G
b11001100100010011001100101100001 A
b10110000011000111000000101111001 @
b10001010110110101000100100110000 ?
b11100001001001010111100101110000 >
b11111110011101110111101110111111 =
b11100001111100100000110000110011 <
b10011101110001101000101101100011 ;
b11000010011000000110110101101101 :
b1111 X
b10011111010001111011111110010100 Z
b11000010000101000110001010111100 [
1$
#1050000
0$
