rtl/tb_sha256_top.vcd
$date
	Sun Aug 03 21:16:10 2025
$end
$version
	Icarus Verilog
$end
$timescale
	1ps
$end
$scope module tb_sha256_top $end
$var wire 1 ! hash_out_valid $end
$var wire 1 " hash_byte_valid $end
$var wire 8 # hash_byte_out [7:0] $end
$var wire 1 $ hash_byte_last $end
$var wire 1 % data_ready $end
$var reg 1 & clk $end
$var reg 8 ' data_in [7:0] $end
$var reg 1 ( data_in_valid $end
$var reg 1 ) data_last $end
$var reg 256 * hash_out_rebuild [255:0] $end
$var reg 1 + rst_n $end
$var integer 32 , byte_counter [31:0] $end
$var integer 32 - message_counter [31:0] $end
$var integer 32 . message_length [31:0] $end
$scope module uut $end
$var wire 1 & clk $end
$var wire 8 / data_in [7:0] $end
$var wire 1 ( data_in_valid $end
$var wire 1 ) data_last $end
$var wire 1 + rst_n $end
$var wire 1 0 padded_block_valid $end
$var wire 512 1 padded_block [511:0] $end
$var wire 1 % data_ready $end
$var wire 1 2 compressed_hash_valid $end
$var wire 256 3 compressed_hash [255:0] $end
$var wire 1 4 Wt_valid $end
$var wire 32 5 Wt [31:0] $end
$var parameter 256 6 INITIAL_HASH $end
$var reg 6 7 byte_counter [5:0] $end
$var reg 1 8 byte_output_active $end
$var reg 1 $ hash_byte_last $end
$var reg 8 9 hash_byte_out [7:0] $end
$var reg 1 " hash_byte_valid $end
$var reg 1 ! hash_out_valid $end
$var reg 256 : intermediate_hash [255:0] $end
$scope module compress_inst $end
$var wire 1 & clk $end
$var wire 256 ; hash_in [255:0] $end
$var wire 1 + rst_n $end
$var wire 1 4 Wt_valid $end
$var wire 32 < Wt_in [31:0] $end
$var reg 32 = T1 [31:0] $end
$var reg 32 > T2 [31:0] $end
$var reg 32 ? a0 [31:0] $end
$var reg 32 @ b0 [31:0] $end
$var reg 32 A c0 [31:0] $end
$var reg 32 B d0 [31:0] $end
$var reg 32 C e0 [31:0] $end
$var reg 32 D f0 [31:0] $end
$var reg 32 E g0 [31:0] $end
$var reg 32 F h0 [31:0] $end
$var reg 256 G hash_out [255:0] $end
$var reg 1 2 hash_out_valid $end
$var reg 256 H hash_reg [255:0] $end
$var reg 1 I output_stage $end
$var reg 6 J wt_counter [5:0] $end
$var reg 1 K zip_active $end
$var integer 32 L i [31:0] $end
$scope function Ch $end
$var reg 32 M x [31:0] $end
$var reg 32 N y [31:0] $end
$var reg 32 O z [31:0] $end
$upscope $end
$scope function Maj $end
$var reg 32 P x [31:0] $end
$var reg 32 Q y [31:0] $end
$var reg 32 R z [31:0] $end
$upscope $end
$scope function SIGMA0 $end
$var reg 32 S x [31:0] $end
$upscope $end
$scope function SIGMA1 $end
$var reg 32 T x [31:0] $end
$upscope $end
$upscope $end
$scope module expand_inst $end
$var wire 1 & clk $end
$var wire 1 + rst_n $end
$var wire 1 0 block_valid $end
$var wire 512 U block_in [511:0] $end
$var parameter 32 V FIFO_DEPTH $end
$var reg 32 W Wt_out [31:0] $end
$var reg 1 4 Wt_valid $end
$var reg 1 X expand_active $end
$var reg 7 Y expand_counter [6:0] $end
$var reg 5 Z fifo_count [4:0] $end
$var reg 5 [ fifo_rd_ptr [4:0] $end
$var reg 5 \ fifo_wr_ptr [4:0] $end
$var integer 32 ] i [31:0] $end
$var integer 32 ^ t [31:0] $end
$scope function sigma0 $end
$var reg 32 _ x [31:0] $end
$upscope $end
$scope function sigma1 $end
$var reg 32 ` x [31:0] $end
$upscope $end
$upscope $end
$scope module padding_inst $end
$var wire 1 & clk $end
$var wire 8 a data_in [7:0] $end
$var wire 1 ( data_in_valid $end
$var wire 1 ) data_last $end
$var wire 1 + rst_n $end
$var parameter 4 b IDLE $end
$var parameter 4 c OUTPUT_FULL_1 $end
$var parameter 4 d OUTPUT_FULL_2 $end
$var parameter 4 e OUTPUT_FULL_3 $end
$var parameter 4 f OUTPUT_LAST $end
$var parameter 4 g PAD_0 $end
$var parameter 4 h PAD_1 $end
$var parameter 4 i PAD_LEN $end
$var parameter 4 j RECEIVE $end
$var reg 6 k byte_count [5:0] $end
$var reg 64 l data_length [63:0] $end
$var reg 512 m data_out [511:0] $end
$var reg 1 0 data_out_valid $end
$var reg 1 % data_ready $end
$var reg 6 n fill_pos [5:0] $end
$var reg 4 o state [3:0] $end
$var reg 512 p temp_block [511:0] $end
$upscope $end
$upscope $end
$upscope $end
$enddefinitions $end
$comment Show the parameter values. $end
$dumpall
b1 j
b111 i
b101 h
b110 g
b1000 f
b100 e
b11 d
b10 c
b0 b
b10000 V
b110101000001001111001100110011110111011011001111010111010000101001111000110111011110011011100101010010101001111111101010011101001010001000011100101001001111111100110110000010101101000100011000001111110000011110110011010101101011011111000001100110100011001 6
$end
#0
$dumpvars
bx p
bx o
bx n
bx m
bx l
bx k
bx a
bx `
bx _
bx ^
bx ]
bx \
bx [
bx Z
bx Y
xX
bx W
bx U
bx T
bx S
bx R
bx Q
bx P
bx O
bx N
bx M
bx L
xK
bx J
xI
bx H
bx G
bx F
bx E
bx D
bx C
bx B
bx A
bx @
bx ?
bx >
bx =
bx <
bx ;
bx :
bx 9
x8
bx 7
bx 5
x4
bx 3
x2
bx 1
x0
bx /
b11 .
bx -
bx ,
x+
bx *
x)
x(
bx '
0&
x%
x$
bx #
x"
x!
$end
#5000
1%
b0 o
00
04
02
0$
0"
0!
1&
#10000
0&
#15000
1&
#20000
b0 n
b0 1
b0 U
b0 m
b0 p
b0 k
b0 l
b0 Z
b0 [
b0 \
b0 5
b0 <
b0 W
0X
b0 Y
b0 3
b0 G
0I
0K
b0 J
b0 H
08
b0 7
b0 #
b0 9
b110101000001001111001100110011110111011011001111010111010000101001111000110111011110011011100101010010101001111111101010011101001010001000011100101001001111111100110110000010101101000100011000001111110000011110110011010101101011011111000001100110100011001 :
b110101000001001111001100110011110111011011001111010111010000101001111000110111011110011011100101010010101001111111101010011101001010001000011100101001001111111100110110000010101101000100011000001111110000011110110011010101101011011111000001100110100011001 ;
b10000 ]
b100000 L
0&
0)
0(
b0 '
b0 /
b0 a
0+
#25000
b100000 L
b10000 ]
1&
#30000
0&
1+
#35000
1&
#40000
0&
#45000
b1 k
b1100001000000000000000000000000000000000000000000000000000000000000000000000000000000000000000000000000000000000000000000000000000000000000000000000000000000000000000000000000000000000000000000000000000000000000000000000000000000000000000000000000000000000000000000000000000000000000000000000000000000000000000000000000000000000000000000000000000000000000000000000000000000000000000000000000000000000000000000000000000000000000000000000000000000000000000000000000000000000000000000000000000000000000000000000000 p
b1000 l
b1 o
b1100001 '
b1100001 /
b1100001 a
b0 -
1(
1&
#50000
0&
#55000
b10 k
b1100001011000100000000000000000000000000000000000000000000000000000000000000000000000000000000000000000000000000000000000000000000000000000000000000000000000000000000000000000000000000000000000000000000000000000000000000000000000000000000000000000000000000000000000000000000000000000000000000000000000000000000000000000000000000000000000000000000000000000000000000000000000000000000000000000000000000000000000000000000000000000000000000000000000000000000000000000000000000000000000000000000000000000000000000000 p
b10000 l
b1100010 '
b1100010 /
b1100010 a
b1 -
1&
#60000
0&
#65000
0%
b101 o
b11 n
b11 k
b1100001011000100110001100000000000000000000000000000000000000000000000000000000000000000000000000000000000000000000000000000000000000000000000000000000000000000000000000000000000000000000000000000000000000000000000000000000000000000000000000000000000000000000000000000000000000000000000000000000000000000000000000000000000000000000000000000000000000000000000000000000000000000000000000000000000000000000000000000000000000000000000000000000000000000000000000000000000000000000000000000000000000000000000000000000 p
b11000 l
1)
b1100011 '
b1100011 /
b1100011 a
b10 -
1&
#70000
0&
#75000
b110 o
b100 n
b1100001011000100110001110000000000000000000000000000000000000000000000000000000000000000000000000000000000000000000000000000000000000000000000000000000000000000000000000000000000000000000000000000000000000000000000000000000000000000000000000000000000000000000000000000000000000000000000000000000000000000000000000000000000000000000000000000000000000000000000000000000000000000000000000000000000000000000000000000000000000000000000000000000000000000000000000000000000000000000000000000000000000000000000000000000 p
0)
0(
b11 -
1&
#80000
0&
#85000
b101 n
1&
#90000
0&
#95000
b110 n
1&
#100000
0&
#105000
b111 n
1&
#110000
0&
#115000
b1000 n
1&
#120000
0&
#125000
b1001 n
1&
#130000
0&
#135000
b1010 n
1&
#140000
0&
#145000
b1011 n
1&
#150000
0&
#155000
b1100 n
1&
#160000
0&
#165000
b1101 n
1&
#170000
0&
#175000
b1110 n
1&
#180000
0&
#185000
b1111 n
1&
#190000
0&
#195000
b10000 n
1&
#200000
0&
#205000
b10001 n
1&
#210000
0&
#215000
b10010 n
1&
#220000
0&
#225000
b10011 n
1&
#230000
0&
#235000
b10100 n
1&
#240000
0&
#245000
b10101 n
1&
#250000
0&
#255000
b10110 n
1&
#260000
0&
#265000
b10111 n
1&
#270000
0&
#275000
b11000 n
1&
#280000
0&
#285000
b11001 n
1&
#290000
0&
#295000
b11010 n
1&
#300000
0&
#305000
b11011 n
1&
#310000
0&
#315000
b11100 n
1&
#320000
0&
#325000
b11101 n
1&
#330000
0&
#335000
b11110 n
1&
#340000
0&
#345000
b11111 n
1&
#350000
0&
#355000
b100000 n
1&
#360000
0&
#365000
b100001 n
1&
#370000
0&
#375000
b100010 n
1&
#380000
0&
#385000
b100011 n
1&
#390000
0&
#395000
b100100 n
1&
#400000
0&
#405000
b100101 n
1&
#410000
0&
#415000
b100110 n
1&
#420000
0&
#425000
b100111 n
1&
#430000
0&
#435000
b101000 n
1&
#440000
0&
#445000
b101001 n
1&
#450000
0&
#455000
b101010 n
1&
#460000
0&
#465000
b101011 n
1&
#470000
0&
#475000
b101100 n
1&
#480000
0&
#485000
b101101 n
1&
#490000
0&
#495000
b101110 n
1&
#500000
0&
#505000
b101111 n
1&
#510000
0&
#515000
b110000 n
1&
#520000
0&
#525000
b110001 n
1&
#530000
0&
#535000
b110010 n
1&
#540000
0&
#545000
b110011 n
1&
#550000
0&
#555000
b110100 n
1&
#560000
0&
#565000
b110101 n
1&
#570000
0&
#575000
b110110 n
1&
#580000
0&
#585000
b110111 n
1&
#590000
0&
#595000
b111000 n
1&
#600000
0&
#605000
b111 o
1&
#610000
0&
#615000
b1000 o
b1100001011000100110001110000000000000000000000000000000000000000000000000000000000000000000000000000000000000000000000000000000000000000000000000000000000000000000000000000000000000000000000000000000000000000000000000000000000000000000000000000000000000000000000000000000000000000000000000000000000000000000000000000000000000000000000000000000000000000000000000000000000000000000000000000000000000000000000000000000000000000000000000000000000000000000000000000000000000000000000000000000000000000000000000011000 p
1&
#620000
0&
#625000
1%
b0 o
b0 l
b0 n
b0 k
b0 p
10
b1100001011000100110001110000000000000000000000000000000000000000000000000000000000000000000000000000000000000000000000000000000000000000000000000000000000000000000000000000000000000000000000000000000000000000000000000000000000000000000000000000000000000000000000000000000000000000000000000000000000000000000000000000000000000000000000000000000000000000000000000000000000000000000000000000000000000000000000000000000000000000000000000000000000000000000000000000000000000000000000000000000000000000000000000011000 1
b1100001011000100110001110000000000000000000000000000000000000000000000000000000000000000000000000000000000000000000000000000000000000000000000000000000000000000000000000000000000000000000000000000000000000000000000000000000000000000000000000000000000000000000000000000000000000000000000000000000000000000000000000000000000000000000000000000000000000000000000000000000000000000000000000000000000000000000000000000000000000000000000000000000000000000000000000000000000000000000000000000000000000000000000000011000 U
b1100001011000100110001110000000000000000000000000000000000000000000000000000000000000000000000000000000000000000000000000000000000000000000000000000000000000000000000000000000000000000000000000000000000000000000000000000000000000000000000000000000000000000000000000000000000000000000000000000000000000000000000000000000000000000000000000000000000000000000000000000000000000000000000000000000000000000000000000000000000000000000000000000000000000000000000000000000000000000000000000000000000000000000000000011000 m
1&
#630000
0&
#635000
00
b1 \
b1 Z
1&
#640000
0&
#645000
b0 Z
b1 [
1X
b10000 Y
b10000 ^
1&
#650000
0&
#655000
b10001 Y
b1111 ]
b0 _
b0 `
1&
#660000
0&
#665000
b10010 Y
b1111 ]
b11000 `
1&
#670000
0&
#675000
b10011 Y
b1111 ]
b1100001011000100110001110000000 `
1&
#680000
0&
#685000
b10100 Y
b1111 ]
b11110000000000000000 `
1&
#690000
0&
#695000
b10101 Y
b1111 ]
b1111101101010000110010000000101 `
1&
#700000
0&
#705000
b10110 Y
b1111 ]
b1100000000000000000001111000110 `
1&
#710000
0&
#715000
b10111 Y
b1111 ]
b111110100111010111101101111000 `
1&
#720000
0&
#725000
b11000 Y
b1111 ]
b1100000111111110000000000 `
1&
#730000
0&
#735000
b11001 Y
b1111 ]
b10010110111001011111111011011 `
1&
#740000
0&
#745000
b11010 Y
b1111 ]
b11100010111000101100001110001110 `
1&
#750000
0&
#755000
b11011 Y
b1111 ]
b11001000001000010101110000011010 `
1&
#760000
0&
#765000
b11100 Y
b1111 ]
b10110111001101100111100110100010 `
1&
#770000
0&
#775000
b11101 Y
b1111 ]
b11100101101111000011100100001001 `
1&
#780000
0&
#785000
b11110 Y
b1111 ]
b110010011001100011110001011011 `
1&
#790000
0&
#795000
b11111 Y
b1111 ]
b11000 _
b10011101001000001001110101100111 `
1&
#800000
0&
#805000
b100000 Y
b1111 ]
b1100001011000100110001110000000 _
b11101100100001110010011011001011 `
1&
#810000
0&
#815000
b100001 Y
14
b1100001011000100110001110000000 5
b1100001011000100110001110000000 <
b1100001011000100110001110000000 W
b1111 ]
b11110000000000000000 _
b1110000001000010011100010100100 `
1&
#820000
0&
#825000
1K
b110101000001001111001100110011110111011011001111010111010000101001111000110111011110011011100101010010101001111111101010011101001010001000011100101001001111111100110110000010101101000100011000001111110000011110110011010101101011011111000001100110100011001 H
b100010 Y
b0 5
b0 <
b0 W
14
b100000 L
b1000100100001001101011100101 >
b1101010000010011110011001100111 P
b10111011011001111010111010000101 Q
b111100011011101111001101110010 R
b1101010000010011110011001100111 S
b1010100110110100101000011101000 =
b1010001000011100101001001111111 M
b10011011000001010110100010001100 N
b11111100000111101100110101011 O
b1010001000011100101001001111111 T
b1011011111000001100110100011001 F
b11111100000111101100110101011 E
b10011011000001010110100010001100 D
b1010001000011100101001001111111 C
b10100101010011111111010100111010 B
b111100011011101111001101110010 A
b10111011011001111010111010000101 @
b1101010000010011110011001100111 ?
b1111 ]
b1111101101010000110010000000101 _
b11010011101101111001011100111011 `
1&
#830000
0&
#835000
b100011 Y
14
b1 J
b1111 ]
b1100000000000000000001111000110 _
b10010011111101011001100101111111 `
b11110000010110101001110010110 >
b1011101011010101110101111001101 P
b1101010000010011110011001100111 Q
b10111011011001111010111010000101 R
b1011101011010101110101111001101 S
b111100010111111000011000010111 =
b11111010001010100100011000100010 M
b1010001000011100101001001111111 N
b10011011000001010110100010001100 O
b11111010001010100100011000100010 T
b0 L
b11111100000111101100110101011 F
b10011011000001010110100010001100 E
b1010001000011100101001001111111 D
b11111010001010100100011000100010 C
b111100011011101111001101110010 B
b10111011011001111010111010000101 A
b1101010000010011110011001100111 @
b1011101011010101110101111001101 ?
1&
#840000
0&
#845000
b10 J
b100100 Y
14
b10001011000000011011110001000001 >
b1011010011010101101100110101101 P
b1011101011010101110101111001101 Q
b1101010000010011110011001100111 R
b1011010011010101101100110101101 S
b111101110000011000101101100110 =
b1111000110011100111100110001001 M
b11111010001010100100011000100010 N
b1010001000011100101001001111111 O
b1111000110011100111100110001001 T
b0 L
b10011011000001010110100010001100 F
b1010001000011100101001001111111 E
b11111010001010100100011000100010 D
b1111000110011100111100110001001 C
b10111011011001111010111010000101 B
b1101010000010011110011001100111 A
b1011101011010101110101111001101 @
b1011010011010101101100110101101 ?
b1111 ]
b111110100111010111101101111000 _
b111011011010001011101001110011 `
1&
#850000
0&
#855000
b100101 Y
14
b11 J
b1111 ]
b1100000111111110000000000 _
b10101111111101001111111111000001 `
b11010011110101101010001111101 >
b11001000110000110100011110100111 P
b1011010011010101101100110101101 Q
b1011101011010101110101111001101 R
b11001000110000110100011110100111 S
b10111010110101100010000111101001 =
b11111001001010010011100111101011 M
b1111000110011100111100110001001 N
b11111010001010100100011000100010 O
b11111001001010010011100111101011 T
b0 L
b1010001000011100101001001111111 F
b11111010001010100100011000100010 E
b1111000110011100111100110001001 D
b11111001001010010011100111101011 C
b1101010000010011110011001100111 B
b1011101011010101110101111001101 A
b1011010011010101101100110101101 @
b11001000110000110100011110100111 ?
1&
#860000
0&
#865000
b100 J
b100110 Y
14
b11101111111011110001111110010 >
b11010101010100001111011001100110 P
b11001000110000110100011110100111 Q
b1011010011010101101100110101101 R
b11010101010100001111011001100110 S
b11100110010000101011011001111000 =
b100100111000000000100001010000 M
b11111001001010010011100111101011 N
b1111000110011100111100110001001 O
b100100111000000000100001010000 T
b0 L
b11111010001010100100011000100010 F
b1111000110011100111100110001001 E
b11111001001010010011100111101011 D
b100100111000000000100001010000 C
b1011101011010101110101111001101 B
b1011010011010101101100110101101 A
b11001000110000110100011110100111 @
b11010101010100001111011001100110 ?
b1111 ]
b10010110111001011111111011011 _
b11110001000010100101110001100010 `
1&
#870000
0&
#875000
b100111 Y
14
b101 J
b1111 ]
b11100010111000101100001110001110 _
b1010100010110011100110010110 `
b10100011010101000001011110101 >
b100010000001001101001101010 P
b11010101010100001111011001100110 Q
b11001000110000110100011110100111 R
b100010000001001101001101010 S
b10110110101111000011100000000 =
b1000011101011011010001001000101 M
b100100111000000000100001010000 N
b11111001001010010011100111101011 O
b1000011101011011010001001000101 T
b0 L
b1111000110011100111100110001001 F
b11111001001010010011100111101011 E
b100100111000000000100001010000 D
b1000011101011011010001001000101 C
b1011010011010101101100110101101 B
b11001000110000110100011110100111 A
b11010101010100001111011001100110 @
b100010000001001101001101010 ?
1&
#880000
0&
#885000
b110 J
b101000 Y
14
b10010100111101010011100100110 >
b101011010000100000100111110101 P
b100010000001001101001101010 Q
b11010101010100001111011001100110 R
b101011010000100000100111110101 S
b11010010011001000101110001011010 =
b1110001010000100110000010101101 M
b1000011101011011010001001000101 N
b100100111000000000100001010000 O
b1110001010000100110000010101101 T
b0 L
b11111001001010010011100111101011 F
b100100111000000000100001010000 E
b1000011101011011010001001000101 D
b1110001010000100110000010101101 C
b11001000110000110100011110100111 B
b11010101010100001111011001100110 A
b100010000001001101001101010 @
b101011010000100000100111110101 ?
b1111 ]
b11001000001000010101110000011010 _
b1110010101011111000001100001010 `
1&
#890000
0&
#895000
b101001 Y
14
b111 J
b1111 ]
b10110111001101100111100110100010 _
b10010100000010011110001100111110 `
b1001110100010111111011101001100 >
b11100101000000110000001110000000 P
b101011010000100000100111110101 Q
b100010000001001101001101010 R
b11100101000000110000001110000000 S
b110111000101001000010000010011 =
b10011011001001111010010000000001 M
b1110001010000100110000010101101 N
b1000011101011011010001001000101 O
b10011011001001111010010000000001 T
b0 L
b100100111000000000100001010000 F
b1000011101011011010001001000101 E
b1110001010000100110000010101101 D
b10011011001001111010010000000001 C
b11010101010100001111011001100110 B
b100010000001001101001101010 A
b101011010000100000100111110101 @
b11100101000000110000001110000000 ?
1&
#900000
0&
#905000
b1000 J
b101010 Y
14
b1011111011110110101100110010111 >
b10000101101000000111101101011111 P
b11100101000000110000001110000000 Q
b101011010000100000100111110101 R
b10000101101000000111101101011111 S
b101110100010011001001100100010 =
b1100011001010111101001111001 M
b10011011001001111010010000000001 N
b1110001010000100110000010101101 O
b1100011001010111101001111001 T
b0 L
b1000011101011011010001001000101 F
b1110001010000100110000010101101 E
b10011011001001111010010000000001 D
b1100011001010111101001111001 C
b100010000001001101001101010 B
b101011010000100000100111110101 A
b11100101000000110000001110000000 @
b10000101101000000111101101011111 ?
b1111 ]
b11100101101111000011100100001001 _
b100100011001000001010100100010 `
1&
#910000
0&
#915000
b101011 Y
14
b1001 J
b1111 ]
b110010011001100011110001011011 _
b10011111010001111011111110010100 `
b10011011000000000001100011001010 >
b10001110000001001110110010111001 P
b10000101101000000111101101011111 Q
b11100101000000110000001110000000 R
b10001110000001001110110010111001 S
b11110001100001110001101110100001 =
b110010110010100010110110001100 M
b1100011001010111101001111001 N
b10011011001001111010010000000001 O
b110010110010100010110110001100 T
b0 L
b1110001010000100110000010101101 F
b10011011001001111010010000000001 E
b1100011001010111101001111001 D
b110010110010100010110110001100 C
b101011010000100000100111110101 B
b11100101000000110000001110000000 A
b10000101101000000111101101011111 @
b10001110000001001110110010111001 ?
1&
#920000
0&
#925000
b1010 J
b101100 Y
14
b11101001001100001000001110001100 >
b10001100100001110011010001101011 P
b10001110000001001110110010111001 Q
b10000101101000000111101101011111 R
b10001100100001110011010001101011 S
b1011110011010000010000001101000 =
b11100110010010010010110010110 M
b110010110010100010110110001100 N
b1100011001010111101001111001 O
b11100110010010010010110010110 T
b0 L
b10011011001001111010010000000001 F
b1100011001010111101001111001 E
b110010110010100010110110001100 D
b11100110010010010010110010110 C
b11100101000000110000001110000000 B
b10000101101000000111101101011111 A
b10001110000001001110110010111001 @
b10001100100001110011010001101011 ?
b1111 ]
b10011101001000001001110101100111 _
b11110000101001100100111101011010 `
1&
#930000
0&
#935000
b101101 Y
14
b1011 J
b1111 ]
b11101100100001110010011011001011 _
b111110001001000110101001111001 `
b11111011010100000110101000011111 >
b1000111100110001010001111110100 P
b10001100100001110011010001101011 Q
b10001110000001001110110010111001 R
b1000111100110001010001111110100 S
b11111011110011110101101110001010 =
b1000011011010110010001111101000 M
b11100110010010010010110010110 N
b110010110010100010110110001100 O
b1000011011010110010001111101000 T
b0 L
b1100011001010111101001111001 F
b110010110010100010110110001100 E
b11100110010010010010110010110 D
b1000011011010110010001111101000 C
b10000101101000000111101101011111 B
b10001110000001001110110010111001 A
b10001100100001110011010001101011 @
b1000111100110001010001111110100 ?
1&
#940000
0&
#945000
b1100 J
b101110 Y
14
b11110111001111101001010000110001 >
b11110111000111111100010110101001 P
b1000111100110001010001111110100 Q
b10001100100001110011010001101011 R
b11110111000111111100010110101001 S
b10010000010100101001010101011111 =
b10000001011011111101011011101001 M
b1000011011010110010001111101000 N
b11100110010010010010110010110 O
b10000001011011111101011011101001 T
b0 L
b110010110010100010110110001100 F
b11100110010010010010110010110 E
b1000011011010110010001111101000 D
b10000001011011111101011011101001 C
b10001110000001001110110010111001 B
b10001100100001110011010001101011 A
b1000111100110001010001111110100 @
b11110111000111111100010110101001 ?
b1111 ]
b1110000001000010011100010100100 _
b100111001100110011101110100011 `
1&
#950000
0&
#955000
b101111 Y
14
b1101 J
b1111 ]
b11010011101101111001011100111011 _
b1100010001110110001111110010 `
b11110001010111111101011010100011 >
b10000111100100010010100110010000 P
b11110111000111111100010110101001 Q
b1000111100110001010001111110100 R
b10000111100100010010100110010000 S
b11100111110100110001010001110011 =
b11110010101111000001000011000 M
b10000001011011111101011011101001 N
b1000011011010110010001111101000 O
b11110010101111000001000011000 T
b0 L
b11100110010010010010110010110 F
b1000011011010110010001111101000 E
b10000001011011111101011011101001 D
b11110010101111000001000011000 C
b10001100100001110011010001101011 B
b1000111100110001010001111110100 A
b11110111000111111100010110101001 @
b10000111100100010010100110010000 ?
1&
#960000
0&
#965000
b1110 J
b110000 Y
b11000 5
b11000 <
b11000 W
14
b11111100011010100001000111000110 >
b11011001001100101110101100010110 P
b10000111100100010010100110010000 Q
b11110111000111111100010110101001 R
b11011001001100101110101100010110 S
b11000011111110100100111000011000 =
b1110100010110100100100011011110 M
b11110010101111000001000011000 N
b10000001011011111101011011101001 O
b1110100010110100100100011011110 T
b0 L
b1000011011010110010001111101000 F
b10000001011011111101011011101001 E
b11110010101111000001000011000 D
b1110100010110100100100011011110 C
b1000111100110001010001111110100 B
b11110111000111111100010110101001 A
b10000111100100010010100110010000 @
b11011001001100101110101100010110 ?
b1111 ]
b10010011111101011001100101111111 _
b10000100000010101011111100100111 `
1&
#970000
0&
#975000
b110001 Y
b1100001011000100110001110000000 5
b1100001011000100110001110000000 <
b1100001011000100110001110000000 W
14
b1111 J
b1111 ]
b111011011010001011101001110011 _
b1111010001010010000110101011101 `
b10100000110000001101101101101010 >
b11000000011001000101111111011110 P
b11011001001100101110101100010110 Q
b10000111100100010010100110010000 R
b11000000011001000101111111011110 S
b10000001110010100100000100100 =
b1011100100101111001000001100 M
b1110100010110100100100011011110 N
b11110010101111000001000011000 O
b1011100100101111001000001100 T
b0 L
b10000001011011111101011011101001 F
b11110010101111000001000011000 E
b1110100010110100100100011011110 D
b1011100100101111001000001100 C
b11110111000111111100010110101001 B
b10000111100100010010100110010000 A
b11011001001100101110101100010110 @
b11000000011001000101111111011110 ?
1&
#980000
0&
#985000
b10000 J
b110010 Y
b11110000000000000000 5
b11110000000000000000 <
b11110000000000000000 W
14
b101001001101111010000110001111 >
b10110000111110100010001110001110 P
b11000000011001000101111111011110 Q
b11011001001100101110101100010110 R
b10110000111110100010001110001110 S
b11111000101000101111100100001100 =
b111010110010000110111001101 M
b1011100100101111001000001100 N
b1110100010110100100100011011110 O
b111010110010000110111001101 T
b0 L
b11110010101111000001000011000 F
b1110100010110100100100011011110 E
b1011100100101111001000001100 D
b111010110010000110111001101 C
b10000111100100010010100110010000 B
b11011001001100101110101100010110 A
b11000000011001000101111111011110 @
b10110000111110100010001110001110 ?
b1111 ]
b10101111111101001111111111000001 _
b110010111000100001111011010 `
1&
#990000
0&
#995000
b110011 Y
b1111101101010000110010000000101 5
b1111101101010000110010000000101 <
b1111101101010000110010000000101 W
14
b10001 J
b1111 ]
b11110001000010100101110001100010 _
b11111011001111101000100111001011 `
b10111101111111110000010010011 >
b100001110110101001101010011011 P
b10110000111110100010001110001110 Q
b11000000011001000101111111011110 R
b100001110110101001101010011011 S
b10101011001110111111100100111110 =
b10000000001101000010001010011100 M
b111010110010000110111001101 N
b1011100100101111001000001100 O
b10000000001101000010001010011100 T
b0 L
b1110100010110100100100011011110 F
b1011100100101111001000001100 E
b111010110010000110111001101 D
b10000000001101000010001010011100 C
b11011001001100101110101100010110 B
b11000000011001000101111111011110 A
b10110000111110100010001110001110 @
b100001110110101001101010011011 ?
1&
#1000000
0&
#1005000
b10010 J
b110100 Y
b1100000000000000000001111000110 5
b1100000000000000000001111000110 <
b1100000000000000000001111000110 W
14
b11110010010100100100001000111100 >
b11000010111110111101100111010001 P
b100001110110101001101010011011 Q
b10110000111110100010001110001110 R
b11000010111110111101100111010001 S
b1100001001010011100110000011 =
b10000100011011101110010001010100 M
b10000000001101000010001010011100 N
b111010110010000110111001101 O
b10000100011011101110010001010100 T
b0 L
b1011100100101111001000001100 F
b111010110010000110111001101 E
b10000000001101000010001010011100 D
b10000100011011101110010001010100 C
b11000000011001000101111111011110 B
b10110000111110100010001110001110 A
b100001110110101001101010011011 @
b11000010111110111101100111010001 ?
b1111 ]
b1010100010110011100110010110 _
b11001100011101100001011111011011 `
1&
#1010000
0&
#1015000
b110101 Y
b111110100111010111101101111000 5
b111110100111010111101101111000 <
b111110100111010111101101111000 W
14
b10011 J
b1111 ]
b1110010101011111000001100001010 _
b10111001111001100110110000110100 `
b11100010100010001010111001001000 >
b11111110011101110111101110111111 P
b11000010111110111101100111010001 Q
b100001110110101001101010011011 R
b11111110011101110111101110111111 S
b11111111011010010101110111101011 =
b11001100100010011001100101100001 M
b10000100011011101110010001010100 N
b10000000001101000010001010011100 O
b11001100100010011001100101100001 T
b0 L
b111010110010000110111001101 F
b10000000001101000010001010011100 E
b10000100011011101110010001010100 D
b11001100100010011001100101100001 C
b10110000111110100010001110001110 B
b100001110110101001101010011011 A
b11000010111110111101100111010001 @
b11111110011101110111101110111111 ?
1&
#1020000
0&
#1025000
b10100 J
b110110 Y
b1100000111111110000000000 5
b1100000111111110000000000 <
b1100000111111110000000000 W
14
b110100110001101001110011001110 >
b11100001111100100000110000110011 P
b11111110011101110111101110111111 Q
b11000010111110111101100111010001 R
b11100001111100100000110000110011 S
b1101000111111111110111010010101 =
b10110000011000111000000101111001 M
b11001100100010011001100101100001 N
b10000100011011101110010001010100 O
b10110000011000111000000101111001 T
b0 L
b10000000001101000010001010011100 F
b10000100011011101110010001010100 E
b11001100100010011001100101100001 D
b10110000011000111000000101111001 C
b100001110110101001101010011011 B
b11000010111110111101100111010001 A
b11111110011101110111101110111111 @
b11100001111100100000110000110011 ?
b1111 ]
b10010100000010011110001100111110 _
b10101001100110010011011001100111 `
1&
#1030000
0&
#1035000
b110111 Y
b10010110111001011111111011011 5
b10010110111001011111111011011 <
b10010110111001011111111011011 W
14
b10101 J
b1111 ]
b100100011001000001010100100010 _
b10000100101110101101111011011101 `
b10100100001101101100110111001110 >
b10011101110001101000101101100011 P
b11100001111100100000110000110011 Q
b11111110011101110111101110111111 R
b10011101110001101000101101100011 S
b11110001010011001111110011111 =
b10001010110110101000100100110000 M
b10110000011000111000000101111001 N
b11001100100010011001100101100001 O
b10001010110110101000100100110000 T
b0 L
b10000100011011101110010001010100 F
b11001100100010011001100101100001 E
b10110000011000111000000101111001 D
b10001010110110101000100100110000 C
b11000010111110111101100111010001 B
b11111110011101110111101110111111 A
b11100001111100100000110000110011 @
b10011101110001101000101101100011 ?
1&
#1040000
0&
#1045000
b10110 J
b111000 Y
b11100010111000101100001110001110 5
b11100010111000101100001110001110 <
b11100010111000101100001110001110 W
14
b1011100001001011100110010110100 >
b11000010011000000110110101101101 P
b10011101110001101000101101100011 Q
b11100001111100100000110000110011 R
b11000010011000000110110101101101 S
b1001011011111011001010110001011 =
b11100001001001010111100101110000 M
b10001010110110101000100100110000 N
b10110000011000111000000101111001 O
b11100001001001010111100101110000 T
b0 L
b11001100100010011001100101100001 F
b10110000011000111000000101111001 E
b10001010110110101000100100110000 D
b11100001001001010111100101110000 C
b11111110011101110111101110111111 B
b11100001111100100000110000110011 A
b10011101110001101000101101100011 @
b11000010011000000110110101101101 ?
b1111 ]
b10011111010001111011111110010100 _
b11000010000101000110001010111100 `
1&
#1050000
0&
