top.vcd
$date
	Fri Aug 01 10:52:21 2025
$end
$version
	Icarus Verilog
$end
$timescale
	1ps
$end
$scope module top_tb $end
$var wire 1 ! hash_out_valid $end
$var wire 256 " hash_out [255:0] $end
$var wire 1 # data_ready $end
$var reg 1 $ clk $end
$var reg 8 % data_in [7:0] $end
$var reg 1 & data_in_valid $end
$var reg 1 ' data_last $end
$var reg 1 ( rst_n $end
$var integer 32 ) i [31:0] $end
$var integer 32 * message_length [31:0] $end
$scope module uut $end
$var wire 1 $ clk $end
$var wire 8 + data_in [7:0] $end
$var wire 1 & data_in_valid $end
$var wire 1 ' data_last $end
$var wire 1 ( rst_n $end
$var wire 1 , padded_block_valid $end
$var wire 512 - padded_block [511:0] $end
$var wire 1 # data_ready $end
$var wire 1 . compressed_hash_valid $end
$var wire 256 / compressed_hash [255:0] $end
$var wire 1 0 Wt_valid $end
$var wire 32 1 Wt [31:0] $end
$var parameter 256 2 INITIAL_HASH $end
$var reg 256 3 hash_out [255:0] $end
$var reg 1 ! hash_out_valid $end
$var reg 256 4 intermediate_hash [255:0] $end
$var reg 2 5 valid_pipeline [1:0] $end
$scope module compress_inst $end
$var wire 1 $ clk $end
$var wire 256 6 hash_in [255:0] $end
$var wire 1 ( rst_n $end
$var wire 1 0 Wt_valid $end
$var wire 32 7 Wt_in [31:0] $end
$var reg 32 8 T1 [31:0] $end
$var reg 32 9 T2 [31:0] $end
$var reg 32 : a0 [31:0] $end
$var reg 32 ; b0 [31:0] $end
$var reg 32 < c0 [31:0] $end
$var reg 32 = d0 [31:0] $end
$var reg 32 > e0 [31:0] $end
$var reg 32 ? f0 [31:0] $end
$var reg 32 @ g0 [31:0] $end
$var reg 32 A h0 [31:0] $end
$var reg 256 B hash_out [255:0] $end
$var reg 1 . hash_out_valid $end
$var reg 256 C hash_reg [255:0] $end
$var reg 1 D output_stage $end
$var reg 6 E wt_counter [5:0] $end
$var reg 1 F zip_active $end
$scope function Ch $end
$var reg 32 G x [31:0] $end
$var reg 32 H y [31:0] $end
$var reg 32 I z [31:0] $end
$upscope $end
$scope function Maj $end
$var reg 32 J x [31:0] $end
$var reg 32 K y [31:0] $end
$var reg 32 L z [31:0] $end
$upscope $end
$scope function SIGMA0 $end
$var reg 32 M x [31:0] $end
$upscope $end
$scope function SIGMA1 $end
$var reg 32 N x [31:0] $end
$upscope $end
$scope begin $ivl_for_loop5 $end
$var integer 32 O i [31:0] $end
$upscope $end
$scope begin $ivl_for_loop6 $end
$var integer 32 P i [31:0] $end
$upscope $end
$scope begin $ivl_for_loop7 $end
$var integer 32 Q i [31:0] $end
$upscope $end
$upscope $end
$scope module expand_inst $end
$var wire 1 $ clk $end
$var wire 1 ( rst_n $end
$var wire 1 , block_valid $end
$var wire 512 R block_in [511:0] $end
$var reg 32 S Wt_out [31:0] $end
$var reg 1 0 Wt_valid $end
$var reg 512 T buffer_block [511:0] $end
$var reg 1 U buffer_valid $end
$var reg 1 V expand_active $end
$var reg 7 W expand_counter [6:0] $end
$scope function sigma0 $end
$var reg 32 X x [31:0] $end
$upscope $end
$scope function sigma1 $end
$var reg 32 Y x [31:0] $end
$upscope $end
$scope begin $ivl_for_loop0 $end
$var integer 32 Z i [31:0] $end
$upscope $end
$scope begin $ivl_for_loop1 $end
$var integer 32 [ i [31:0] $end
$upscope $end
$scope begin $ivl_for_loop2 $end
$var integer 32 \ t [31:0] $end
$upscope $end
$scope begin $ivl_for_loop3 $end
$var integer 32 ] i [31:0] $end
$upscope $end
$scope begin $ivl_for_loop4 $end
$var integer 32 ^ t [31:0] $end
$upscope $end
$upscope $end
$scope module padding_inst $end
$var wire 1 $ clk $end
$var wire 8 _ data_in [7:0] $end
$var wire 1 & data_in_valid $end
$var wire 1 ' data_last $end
$var wire 1 ( rst_n $end
$var parameter 3 ` IDLE $end
$var parameter 3 a OUTPUT $end
$var parameter 3 b PAD_0 $end
$var parameter 3 c PAD_1 $end
$var parameter 3 d PAD_LEN $end
$var parameter 3 e RECEIVE $end
$var parameter 3 f SECOND_BLOCK $end
$var reg 6 g byte_count [5:0] $end
$var reg 64 h data_length [63:0] $end
$var reg 512 i data_out [511:0] $end
$var reg 1 , data_out_valid $end
$var reg 1 # data_ready $end
$var reg 6 j fill_pos [5:0] $end
$var reg 1 k second_block $end
$var reg 3 l state [2:0] $end
$var reg 512 m temp_block [511:0] $end
$upscope $end
$upscope $end
$upscope $end
$enddefinitions $end
$comment Show the parameter values. $end
$dumpall
b110 f
b1 e
b100 d
b10 c
b11 b
b101 a
b0 `
b110101000001001111001100110011110111011011001111010111010000101001111000110111011110011011100101010010101001111111101010011101001010001000011100101001001111111100110110000010101101000100011000001111110000011110110011010101101011011111000001100110100011001 2
$end
#0
$dumpvars
bx m
bx l
xk
bx j
bx i
bx h
bx g
bx _
bx ^
bx ]
bx \
bx [
bx Z
bx Y
bx X
bx W
xV
xU
bx T
bx S
bx R
bx Q
bx P
bx O
bx N
bx M
bx L
bx K
bx J
bx I
bx H
bx G
xF
bx E
xD
bx C
bx B
bx A
bx @
bx ?
bx >
bx =
bx <
bx ;
bx :
bx 9
bx 8
bx 7
bx 6
bx 5
bx 4
bx 3
bx 1
x0
bx /
x.
bx -
x,
bx +
b11 *
bx )
x(
x'
x&
bx %
0$
x#
bx "
x!
$end
#5000
b0 l
0,
00
0.
1$
#10000
0$
#15000
bx0 5
1#
1$
#20000
b0 /
b0 B
0D
0F
b0 E
b0 C
0U
b0 T
b0 1
b0 7
b0 S
0V
b0 W
0k
b0 j
0#
b0 -
b0 R
b0 i
b0 m
b0 g
b0 h
b0 5
0!
b0 "
b0 3
b110101000001001111001100110011110111011011001111010111010000101001111000110111011110011011100101010010101001111111101010011101001010001000011100101001001111111100110110000010101101000100011000001111110000011110110011010101101011011111000001100110100011001 4
b110101000001001111001100110011110111011011001111010111010000101001111000110111011110011011100101010010101001111111101010011101001010001000011100101001001111111100110110000010101101000100011000001111110000011110110011010101101011011111000001100110100011001 6
b100000 O
b10000 [
b1000000 Z
0$
0'
0&
b0 %
b0 +
b0 _
0(
#25000
b100000 O
b10000 [
b1000000 Z
1$
#30000
0$
1(
#35000
1#
1$
#40000
0$
#45000
b1 g
b1100001000000000000000000000000000000000000000000000000000000000000000000000000000000000000000000000000000000000000000000000000000000000000000000000000000000000000000000000000000000000000000000000000000000000000000000000000000000000000000000000000000000000000000000000000000000000000000000000000000000000000000000000000000000000000000000000000000000000000000000000000000000000000000000000000000000000000000000000000000000000000000000000000000000000000000000000000000000000000000000000000000000000000000000000000 m
b1000 h
b1 l
1&
b1100001 %
b1100001 +
b1100001 _
b0 )
1$
#50000
0$
#55000
b10 g
b1100001011000100000000000000000000000000000000000000000000000000000000000000000000000000000000000000000000000000000000000000000000000000000000000000000000000000000000000000000000000000000000000000000000000000000000000000000000000000000000000000000000000000000000000000000000000000000000000000000000000000000000000000000000000000000000000000000000000000000000000000000000000000000000000000000000000000000000000000000000000000000000000000000000000000000000000000000000000000000000000000000000000000000000000000000 m
b10000 h
b1100010 %
b1100010 +
b1100010 _
b1 )
1$
#60000
0$
#65000
b11 j
0#
b10 l
b11 g
b1100001011000100110001100000000000000000000000000000000000000000000000000000000000000000000000000000000000000000000000000000000000000000000000000000000000000000000000000000000000000000000000000000000000000000000000000000000000000000000000000000000000000000000000000000000000000000000000000000000000000000000000000000000000000000000000000000000000000000000000000000000000000000000000000000000000000000000000000000000000000000000000000000000000000000000000000000000000000000000000000000000000000000000000000000000 m
b11000 h
1'
b1100011 %
b1100011 +
b1100011 _
b10 )
1$
#70000
0$
#75000
b11 l
b100 j
b1100001011000100110001110000000000000000000000000000000000000000000000000000000000000000000000000000000000000000000000000000000000000000000000000000000000000000000000000000000000000000000000000000000000000000000000000000000000000000000000000000000000000000000000000000000000000000000000000000000000000000000000000000000000000000000000000000000000000000000000000000000000000000000000000000000000000000000000000000000000000000000000000000000000000000000000000000000000000000000000000000000000000000000000000000000 m
0'
0&
b11 )
1$
#80000
0$
#85000
b101 j
1$
#90000
0$
#95000
b110 j
1$
#100000
0$
#105000
b111 j
1$
#110000
0$
#115000
b1000 j
1$
#120000
0$
#125000
b1001 j
1$
#130000
0$
#135000
b1010 j
1$
#140000
0$
#145000
b1011 j
1$
#150000
0$
#155000
b1100 j
1$
#160000
0$
#165000
b1101 j
1$
#170000
0$
#175000
b1110 j
1$
#180000
0$
#185000
b1111 j
1$
#190000
0$
#195000
b10000 j
1$
#200000
0$
#205000
b10001 j
1$
#210000
0$
#215000
b10010 j
1$
#220000
0$
#225000
b10011 j
1$
#230000
0$
#235000
b10100 j
1$
#240000
0$
#245000
b10101 j
1$
#250000
0$
#255000
b10110 j
1$
#260000
0$
#265000
b10111 j
1$
#270000
0$
#275000
b11000 j
1$
#280000
0$
#285000
b11001 j
1$
#290000
0$
#295000
b11010 j
1$
#300000
0$
#305000
b11011 j
1$
#310000
0$
#315000
b11100 j
1$
#320000
0$
#325000
b11101 j
1$
#330000
0$
#335000
b11110 j
1$
#340000
0$
#345000
b11111 j
1$
#350000
0$
#355000
b100000 j
1$
#360000
0$
#365000
b100001 j
1$
#370000
0$
#375000
b100010 j
1$
#380000
0$
#385000
b100011 j
1$
#390000
0$
#395000
b100100 j
1$
#400000
0$
#405000
b100101 j
1$
#410000
0$
#415000
b100110 j
1$
#420000
0$
#425000
b100111 j
1$
#430000
0$
#435000
b101000 j
1$
#440000
0$
#445000
b101001 j
1$
#450000
0$
#455000
b101010 j
1$
#460000
0$
#465000
b101011 j
1$
#470000
0$
#475000
b101100 j
1$
#480000
0$
#485000
b101101 j
1$
#490000
0$
#495000
b101110 j
1$
#500000
0$
#505000
b101111 j
1$
#510000
0$
#515000
b110000 j
1$
#520000
0$
#525000
b110001 j
1$
#530000
0$
#535000
b110010 j
1$
#540000
0$
#545000
b110011 j
1$
#550000
0$
#555000
b110100 j
1$
#560000
0$
#565000
b110101 j
1$
#570000
0$
#575000
b110110 j
1$
#580000
0$
#585000
b110111 j
1$
#590000
0$
#595000
b111000 j
1$
#600000
0$
#605000
b100 l
1$
#610000
0$
#615000
b101 l
b1100001011000100110001110000000000000000000000000000000000000000000000000000000000000000000000000000000000000000000000000000000000000000000000000000000000000000000000000000000000000000000000000000000000000000000000000000000000000000000000000000000000000000000000000000000000000000000000000000000000000000000000000000000000000000000000000000000000000000000000000000000000000000000000000000000000000000000000000000000000000000000000000000000000000000000000000000000000000000000000000000000000000000000000000011000 m
1$
#620000
0$
#625000
b0 l
b0 j
b0 g
b0 m
1,
b1100001011000100110001110000000000000000000000000000000000000000000000000000000000000000000000000000000000000000000000000000000000000000000000000000000000000000000000000000000000000000000000000000000000000000000000000000000000000000000000000000000000000000000000000000000000000000000000000000000000000000000000000000000000000000000000000000000000000000000000000000000000000000000000000000000000000000000000000000000000000000000000000000000000000000000000000000000000000000000000000000000000000000000000000011000 -
b1100001011000100110001110000000000000000000000000000000000000000000000000000000000000000000000000000000000000000000000000000000000000000000000000000000000000000000000000000000000000000000000000000000000000000000000000000000000000000000000000000000000000000000000000000000000000000000000000000000000000000000000000000000000000000000000000000000000000000000000000000000000000000000000000000000000000000000000000000000000000000000000000000000000000000000000000000000000000000000000000000000000000000000000000011000 R
b1100001011000100110001110000000000000000000000000000000000000000000000000000000000000000000000000000000000000000000000000000000000000000000000000000000000000000000000000000000000000000000000000000000000000000000000000000000000000000000000000000000000000000000000000000000000000000000000000000000000000000000000000000000000000000000000000000000000000000000000000000000000000000000000000000000000000000000000000000000000000000000000000000000000000000000000000000000000000000000000000000000000000000000000000011000 i
1$
#630000
0$
#635000
1V
b10000 W
1#
0,
b10000 \
1$
#640000
0$
#645000
b10001 W
b1111 ]
b0 X
b0 Y
1$
#650000
0$
#655000
b10010 W
b1111 ]
b11000 Y
1$
#660000
0$
#665000
b10011 W
b1111 ]
b1100001011000100110001110000000 Y
1$
#670000
0$
#675000
b10100 W
b1111 ]
b11110000000000000000 Y
1$
#680000
0$
#685000
b10101 W
b1111 ]
b1111101101010000110010000000101 Y
1$
#690000
0$
#695000
b10110 W
b1111 ]
b1100000000000000000001111000110 Y
1$
#700000
0$
#705000
b10111 W
b1111 ]
b111110100111010111101101111000 Y
1$
#710000
0$
#715000
b11000 W
b1111 ]
b1100000111111110000000000 Y
1$
#720000
0$
#725000
b11001 W
b1111 ]
b10010110111001011111111011011 Y
1$
#730000
0$
#735000
b11010 W
b1111 ]
b11100010111000101100001110001110 Y
1$
#740000
0$
#745000
b11011 W
b1111 ]
b11001000001000010101110000011010 Y
1$
#750000
0$
#755000
b11100 W
b1111 ]
b10110111001101100111100110100010 Y
1$
#760000
0$
#765000
b11101 W
b1111 ]
b11100101101111000011100100001001 Y
1$
#770000
0$
#775000
b11110 W
b1111 ]
b110010011001100011110001011011 Y
1$
#780000
0$
#785000
b11111 W
b1111 ]
b11000 X
b10011101001000001001110101100111 Y
1$
#790000
0$
#795000
b100000 W
b1111 ]
b1100001011000100110001110000000 X
b11101100100001110010011011001011 Y
1$
#800000
0$
#805000
b100001 W
10
b1100001011000100110001110000000 1
b1100001011000100110001110000000 7
b1100001011000100110001110000000 S
b1111 ]
b11110000000000000000 X
b1110000001000010011100010100100 Y
1$
#810000
0$
#815000
b100010 W
b0 1
b0 7
b0 S
1F
b110101000001001111001100110011110111011011001111010111010000101001111000110111011110011011100101010010101001111111101010011101001010001000011100101001001111111100110110000010101101000100011000001111110000011110110011010101101011011111000001100110100011001 C
10
b1111 ]
b100000 P
b1000100100001001101011100101 9
b1101010000010011110011001100111 J
b10111011011001111010111010000101 K
b111100011011101111001101110010 L
b1101010000010011110011001100111 M
b1010100110110100101000011101000 8
b1010001000011100101001001111111 G
b10011011000001010110100010001100 H
b11111100000111101100110101011 I
b1010001000011100101001001111111 N
b1011011111000001100110100011001 A
b11111100000111101100110101011 @
b10011011000001010110100010001100 ?
b1010001000011100101001001111111 >
b10100101010011111111010100111010 =
b111100011011101111001101110010 <
b10111011011001111010111010000101 ;
b1101010000010011110011001100111 :
b1111101101010000110010000000101 X
b11010011101101111001011100111011 Y
1$
#820000
0$
#825000
b100011 W
b1 E
10
b1111 ]
b11110000010110101001110010110 9
b1011101011010101110101111001101 J
b1101010000010011110011001100111 K
b10111011011001111010111010000101 L
b1011101011010101110101111001101 M
b111100010111111000011000010111 8
b11111010001010100100011000100010 G
b1010001000011100101001001111111 H
b10011011000001010110100010001100 I
b11111010001010100100011000100010 N
b0 Q
b11111100000111101100110101011 A
b10011011000001010110100010001100 @
b1010001000011100101001001111111 ?
b11111010001010100100011000100010 >
b111100011011101111001101110010 =
b10111011011001111010111010000101 <
b1101010000010011110011001100111 ;
b1011101011010101110101111001101 :
b1100000000000000000001111000110 X
b10010011111101011001100101111111 Y
1$
#830000
0$
#835000
b100100 W
b10 E
10
b1111 ]
b10001011000000011011110001000001 9
b1011010011010101101100110101101 J
b1011101011010101110101111001101 K
b1101010000010011110011001100111 L
b1011010011010101101100110101101 M
b111101110000011000101101100110 8
b1111000110011100111100110001001 G
b11111010001010100100011000100010 H
b1010001000011100101001001111111 I
b1111000110011100111100110001001 N
b0 Q
b10011011000001010110100010001100 A
b1010001000011100101001001111111 @
b11111010001010100100011000100010 ?
b1111000110011100111100110001001 >
b10111011011001111010111010000101 =
b1101010000010011110011001100111 <
b1011101011010101110101111001101 ;
b1011010011010101101100110101101 :
b111110100111010111101101111000 X
b111011011010001011101001110011 Y
1$
#840000
0$
#845000
b100101 W
b11 E
10
b1111 ]
b11010011110101101010001111101 9
b11001000110000110100011110100111 J
b1011010011010101101100110101101 K
b1011101011010101110101111001101 L
b11001000110000110100011110100111 M
b10111010110101100010000111101001 8
b11111001001010010011100111101011 G
b1111000110011100111100110001001 H
b11111010001010100100011000100010 I
b11111001001010010011100111101011 N
b0 Q
b1010001000011100101001001111111 A
b11111010001010100100011000100010 @
b1111000110011100111100110001001 ?
b11111001001010010011100111101011 >
b1101010000010011110011001100111 =
b1011101011010101110101111001101 <
b1011010011010101101100110101101 ;
b11001000110000110100011110100111 :
b1100000111111110000000000 X
b10101111111101001111111111000001 Y
1$
#850000
0$
#855000
b100110 W
b100 E
10
b1111 ]
b11101111111011110001111110010 9
b11010101010100001111011001100110 J
b11001000110000110100011110100111 K
b1011010011010101101100110101101 L
b11010101010100001111011001100110 M
b11100110010000101011011001111000 8
b100100111000000000100001010000 G
b11111001001010010011100111101011 H
b1111000110011100111100110001001 I
b100100111000000000100001010000 N
b0 Q
b11111010001010100100011000100010 A
b1111000110011100111100110001001 @
b11111001001010010011100111101011 ?
b100100111000000000100001010000 >
b1011101011010101110101111001101 =
b1011010011010101101100110101101 <
b11001000110000110100011110100111 ;
b11010101010100001111011001100110 :
b10010110111001011111111011011 X
b11110001000010100101110001100010 Y
1$
#860000
0$
#865000
b100111 W
b101 E
10
b1111 ]
b10100011010101000001011110101 9
b100010000001001101001101010 J
b11010101010100001111011001100110 K
b11001000110000110100011110100111 L
b100010000001001101001101010 M
b10110110101111000011100000000 8
b1000011101011011010001001000101 G
b100100111000000000100001010000 H
b11111001001010010011100111101011 I
b1000011101011011010001001000101 N
b0 Q
b1111000110011100111100110001001 A
b11111001001010010011100111101011 @
b100100111000000000100001010000 ?
b1000011101011011010001001000101 >
b1011010011010101101100110101101 =
b11001000110000110100011110100111 <
b11010101010100001111011001100110 ;
b100010000001001101001101010 :
b11100010111000101100001110001110 X
b1010100010110011100110010110 Y
1$
#870000
0$
#875000
b101000 W
b110 E
10
b1111 ]
b10010100111101010011100100110 9
b101011010000100000100111110101 J
b100010000001001101001101010 K
b11010101010100001111011001100110 L
b101011010000100000100111110101 M
b11010010011001000101110001011010 8
b1110001010000100110000010101101 G
b1000011101011011010001001000101 H
b100100111000000000100001010000 I
b1110001010000100110000010101101 N
b0 Q
b11111001001010010011100111101011 A
b100100111000000000100001010000 @
b1000011101011011010001001000101 ?
b1110001010000100110000010101101 >
b11001000110000110100011110100111 =
b11010101010100001111011001100110 <
b100010000001001101001101010 ;
b101011010000100000100111110101 :
b11001000001000010101110000011010 X
b1110010101011111000001100001010 Y
1$
#880000
0$
#885000
b101001 W
b111 E
10
b1111 ]
b1001110100010111111011101001100 9
b11100101000000110000001110000000 J
b101011010000100000100111110101 K
b100010000001001101001101010 L
b11100101000000110000001110000000 M
b110111000101001000010000010011 8
b10011011001001111010010000000001 G
b1110001010000100110000010101101 H
b1000011101011011010001001000101 I
b10011011001001111010010000000001 N
b0 Q
b100100111000000000100001010000 A
b1000011101011011010001001000101 @
b1110001010000100110000010101101 ?
b10011011001001111010010000000001 >
b11010101010100001111011001100110 =
b100010000001001101001101010 <
b101011010000100000100111110101 ;
b11100101000000110000001110000000 :
b10110111001101100111100110100010 X
b10010100000010011110001100111110 Y
1$
#890000
0$
#895000
b101010 W
b1000 E
10
b1111 ]
b1011111011110110101100110010111 9
b10000101101000000111101101011111 J
b11100101000000110000001110000000 K
b101011010000100000100111110101 L
b10000101101000000111101101011111 M
b101110100010011001001100100010 8
b1100011001010111101001111001 G
b10011011001001111010010000000001 H
b1110001010000100110000010101101 I
b1100011001010111101001111001 N
b0 Q
b1000011101011011010001001000101 A
b1110001010000100110000010101101 @
b10011011001001111010010000000001 ?
b1100011001010111101001111001 >
b100010000001001101001101010 =
b101011010000100000100111110101 <
b11100101000000110000001110000000 ;
b10000101101000000111101101011111 :
b11100101101111000011100100001001 X
b100100011001000001010100100010 Y
1$
#900000
0$
#905000
b101011 W
b1001 E
10
b1111 ]
b10011011000000000001100011001010 9
b10001110000001001110110010111001 J
b10000101101000000111101101011111 K
b11100101000000110000001110000000 L
b10001110000001001110110010111001 M
b11110001100001110001101110100001 8
b110010110010100010110110001100 G
b1100011001010111101001111001 H
b10011011001001111010010000000001 I
b110010110010100010110110001100 N
b0 Q
b1110001010000100110000010101101 A
b10011011001001111010010000000001 @
b1100011001010111101001111001 ?
b110010110010100010110110001100 >
b101011010000100000100111110101 =
b11100101000000110000001110000000 <
b10000101101000000111101101011111 ;
b10001110000001001110110010111001 :
b110010011001100011110001011011 X
b10011111010001111011111110010100 Y
1$
#910000
0$
#915000
b101100 W
b1010 E
10
b1111 ]
b11101001001100001000001110001100 9
b10001100100001110011010001101011 J
b10001110000001001110110010111001 K
b10000101101000000111101101011111 L
b10001100100001110011010001101011 M
b1011110011010000010000001101000 8
b11100110010010010010110010110 G
b110010110010100010110110001100 H
b1100011001010111101001111001 I
b11100110010010010010110010110 N
b0 Q
b10011011001001111010010000000001 A
b1100011001010111101001111001 @
b110010110010100010110110001100 ?
b11100110010010010010110010110 >
b11100101000000110000001110000000 =
b10000101101000000111101101011111 <
b10001110000001001110110010111001 ;
b10001100100001110011010001101011 :
b10011101001000001001110101100111 X
b11110000101001100100111101011010 Y
1$
#920000
0$
#925000
b101101 W
b1011 E
10
b1111 ]
b11111011010100000110101000011111 9
b1000111100110001010001111110100 J
b10001100100001110011010001101011 K
b10001110000001001110110010111001 L
b1000111100110001010001111110100 M
b11111011110011110101101110001010 8
b1000011011010110010001111101000 G
b11100110010010010010110010110 H
b110010110010100010110110001100 I
b1000011011010110010001111101000 N
b0 Q
b1100011001010111101001111001 A
b110010110010100010110110001100 @
b11100110010010010010110010110 ?
b1000011011010110010001111101000 >
b10000101101000000111101101011111 =
b10001110000001001110110010111001 <
b10001100100001110011010001101011 ;
b1000111100110001010001111110100 :
b11101100100001110010011011001011 X
b111110001001000110101001111001 Y
1$
#930000
0$
#935000
b101110 W
b1100 E
10
b1111 ]
b11110111001111101001010000110001 9
b11110111000111111100010110101001 J
b1000111100110001010001111110100 K
b10001100100001110011010001101011 L
b11110111000111111100010110101001 M
b10010000010100101001010101011111 8
b10000001011011111101011011101001 G
b1000011011010110010001111101000 H
b11100110010010010010110010110 I
b10000001011011111101011011101001 N
b0 Q
b110010110010100010110110001100 A
b11100110010010010010110010110 @
b1000011011010110010001111101000 ?
b10000001011011111101011011101001 >
b10001110000001001110110010111001 =
b10001100100001110011010001101011 <
b1000111100110001010001111110100 ;
b11110111000111111100010110101001 :
b1110000001000010011100010100100 X
b100111001100110011101110100011 Y
1$
#940000
0$
#945000
b101111 W
b1101 E
10
b1111 ]
b11110001010111111101011010100011 9
b10000111100100010010100110010000 J
b11110111000111111100010110101001 K
b1000111100110001010001111110100 L
b10000111100100010010100110010000 M
b11100111110100110001010001110011 8
b11110010101111000001000011000 G
b10000001011011111101011011101001 H
b1000011011010110010001111101000 I
b11110010101111000001000011000 N
b0 Q
b11100110010010010010110010110 A
b1000011011010110010001111101000 @
b10000001011011111101011011101001 ?
b11110010101111000001000011000 >
b10001100100001110011010001101011 =
b1000111100110001010001111110100 <
b11110111000111111100010110101001 ;
b10000111100100010010100110010000 :
b11010011101101111001011100111011 X
b1100010001110110001111110010 Y
1$
#950000
0$
#955000
b110000 W
b11000 1
b11000 7
b11000 S
b1110 E
10
b1111 ]
b11111100011010100001000111000110 9
b11011001001100101110101100010110 J
b10000111100100010010100110010000 K
b11110111000111111100010110101001 L
b11011001001100101110101100010110 M
b11000011111110100100111000011000 8
b1110100010110100100100011011110 G
b11110010101111000001000011000 H
b10000001011011111101011011101001 I
b1110100010110100100100011011110 N
b0 Q
b1000011011010110010001111101000 A
b10000001011011111101011011101001 @
b11110010101111000001000011000 ?
b1110100010110100100100011011110 >
b1000111100110001010001111110100 =
b11110111000111111100010110101001 <
b10000111100100010010100110010000 ;
b11011001001100101110101100010110 :
b10010011111101011001100101111111 X
b10000100000010101011111100100111 Y
1$
#960000
0$
#965000
b110001 W
b1100001011000100110001110000000 1
b1100001011000100110001110000000 7
b1100001011000100110001110000000 S
b1111 E
10
b1111 ]
b10100000110000001101101101101010 9
b11000000011001000101111111011110 J
b11011001001100101110101100010110 K
b10000111100100010010100110010000 L
b11000000011001000101111111011110 M
b10000001110010100100000100100 8
b1011100100101111001000001100 G
b1110100010110100100100011011110 H
b11110010101111000001000011000 I
b1011100100101111001000001100 N
b0 Q
b10000001011011111101011011101001 A
b11110010101111000001000011000 @
b1110100010110100100100011011110 ?
b1011100100101111001000001100 >
b11110111000111111100010110101001 =
b10000111100100010010100110010000 <
b11011001001100101110101100010110 ;
b11000000011001000101111111011110 :
b111011011010001011101001110011 X
b1111010001010010000110101011101 Y
1$
#970000
0$
#975000
b110010 W
b11110000000000000000 1
b11110000000000000000 7
b11110000000000000000 S
b10000 E
10
b1111 ]
b101001001101111010000110001111 9
b10110000111110100010001110001110 J
b11000000011001000101111111011110 K
b11011001001100101110101100010110 L
b10110000111110100010001110001110 M
b11111000101000101111100100001100 8
b111010110010000110111001101 G
b1011100100101111001000001100 H
b1110100010110100100100011011110 I
b111010110010000110111001101 N
b0 Q
b11110010101111000001000011000 A
b1110100010110100100100011011110 @
b1011100100101111001000001100 ?
b111010110010000110111001101 >
b10000111100100010010100110010000 =
b11011001001100101110101100010110 <
b11000000011001000101111111011110 ;
b10110000111110100010001110001110 :
b10101111111101001111111111000001 X
b110010111000100001111011010 Y
1$
#980000
0$
#985000
b110011 W
b1111101101010000110010000000101 1
b1111101101010000110010000000101 7
b1111101101010000110010000000101 S
b10001 E
10
b1111 ]
b10111101111111110000010010011 9
b100001110110101001101010011011 J
b10110000111110100010001110001110 K
b11000000011001000101111111011110 L
b100001110110101001101010011011 M
b10101011001110111111100100111110 8
b10000000001101000010001010011100 G
b111010110010000110111001101 H
b1011100100101111001000001100 I
b10000000001101000010001010011100 N
b0 Q
b1110100010110100100100011011110 A
b1011100100101111001000001100 @
b111010110010000110111001101 ?
b10000000001101000010001010011100 >
b11011001001100101110101100010110 =
b11000000011001000101111111011110 <
b10110000111110100010001110001110 ;
b100001110110101001101010011011 :
b11110001000010100101110001100010 X
b11111011001111101000100111001011 Y
1$
#990000
0$
#995000
b110100 W
b1100000000000000000001111000110 1
b1100000000000000000001111000110 7
b1100000000000000000001111000110 S
b10010 E
10
b1111 ]
b11110010010100100100001000111100 9
b11000010111110111101100111010001 J
b100001110110101001101010011011 K
b10110000111110100010001110001110 L
b11000010111110111101100111010001 M
b1100001001010011100110000011 8
b10000100011011101110010001010100 G
b10000000001101000010001010011100 H
b111010110010000110111001101 I
b10000100011011101110010001010100 N
b0 Q
b1011100100101111001000001100 A
b111010110010000110111001101 @
b10000000001101000010001010011100 ?
b10000100011011101110010001010100 >
b11000000011001000101111111011110 =
b10110000111110100010001110001110 <
b100001110110101001101010011011 ;
b11000010111110111101100111010001 :
b1010100010110011100110010110 X
b11001100011101100001011111011011 Y
1$
#1000000
0$
#1005000
b110101 W
b111110100111010111101101111000 1
b111110100111010111101101111000 7
b111110100111010111101101111000 S
b10011 E
10
b1111 ]
b11100010100010001010111001001000 9
b11111110011101110111101110111111 J
b11000010111110111101100111010001 K
b100001110110101001101010011011 L
b11111110011101110111101110111111 M
b11111111011010010101110111101011 8
b11001100100010011001100101100001 G
b10000100011011101110010001010100 H
b10000000001101000010001010011100 I
b11001100100010011001100101100001 N
b0 Q
b111010110010000110111001101 A
b10000000001101000010001010011100 @
b10000100011011101110010001010100 ?
b11001100100010011001100101100001 >
b10110000111110100010001110001110 =
b100001110110101001101010011011 <
b11000010111110111101100111010001 ;
b11111110011101110111101110111111 :
b1110010101011111000001100001010 X
b10111001111001100110110000110100 Y
1$
#1010000
0$
#1015000
b110110 W
b1100000111111110000000000 1
b1100000111111110000000000 7
b1100000111111110000000000 S
b10100 E
10
b1111 ]
b110100110001101001110011001110 9
b11100001111100100000110000110011 J
b11111110011101110111101110111111 K
b11000010111110111101100111010001 L
b11100001111100100000110000110011 M
b1101000111111111110111010010101 8
b10110000011000111000000101111001 G
b11001100100010011001100101100001 H
b10000100011011101110010001010100 I
b10110000011000111000000101111001 N
b0 Q
b10000000001101000010001010011100 A
b10000100011011101110010001010100 @
b11001100100010011001100101100001 ?
b10110000011000111000000101111001 >
b100001110110101001101010011011 =
b11000010111110111101100111010001 <
b11111110011101110111101110111111 ;
b11100001111100100000110000110011 :
b10010100000010011110001100111110 X
b10101001100110010011011001100111 Y
1$
#1020000
0$
#1025000
b110111 W
b10010110111001011111111011011 1
b10010110111001011111111011011 7
b10010110111001011111111011011 S
b10101 E
10
b1111 ]
b10100100001101101100110111001110 9
b10011101110001101000101101100011 J
b11100001111100100000110000110011 K
b11111110011101110111101110111111 L
b10011101110001101000101101100011 M
b11110001010011001111110011111 8
b10001010110110101000100100110000 G
b10110000011000111000000101111001 H
b11001100100010011001100101100001 I
b10001010110110101000100100110000 N
b0 Q
b10000100011011101110010001010100 A
b11001100100010011001100101100001 @
b10110000011000111000000101111001 ?
b10001010110110101000100100110000 >
b11000010111110111101100111010001 =
b11111110011101110111101110111111 <
b11100001111100100000110000110011 ;
b10011101110001101000101101100011 :
b100100011001000001010100100010 X
b10000100101110101101111011011101 Y
1$
#1030000
0$
#1035000
b111000 W
b11100010111000101100001110001110 1
b11100010111000101100001110001110 7
b11100010111000101100001110001110 S
b10110 E
10
b1111 ]
b1011100001001011100110010110100 9
b11000010011000000110110101101101 J
b10011101110001101000101101100011 K
b11100001111100100000110000110011 L
b11000010011000000110110101101101 M
b1001011011111011001010110001011 8
b11100001001001010111100101110000 G
b10001010110110101000100100110000 H
b10110000011000111000000101111001 I
b11100001001001010111100101110000 N
b0 Q
b11001100100010011001100101100001 A
b10110000011000111000000101111001 @
b10001010110110101000100100110000 ?
b11100001001001010111100101110000 >
b11111110011101110111101110111111 =
b11100001111100100000110000110011 <
b10011101110001101000101101100011 ;
b11000010011000000110110101101101 :
b10011111010001111011111110010100 X
b11000010000101000110001010111100 Y
1$
#1040000
0$
